%YAML 1.1
%TAG !u! tag:unity3d.com,2011:
--- !u!114 &11400000
MonoBehaviour:
  m_ObjectHideFlags: 0
  m_PrefabParentObject: {fileID: 0}
  m_PrefabInternal: {fileID: 0}
  m_GameObject: {fileID: 0}
  m_Enabled: 1
  m_EditorHideFlags: 0
  m_Script: {fileID: 11500000, guid: 3e10b1792f7d3410a9fd34e52769cbb2, type: 3}
  m_Name: uidata_chest_opening_export
  m_EditorClassIdentifier: 
  tempExportPath: 
  indented: 0
