%YAML 1.1
%TAG !u! tag:unity3d.com,2011:
--- !u!114 &11400000
MonoBehaviour:
  m_ObjectHideFlags: 0
  m_PrefabParentObject: {fileID: 0}
  m_PrefabInternal: {fileID: 0}
  m_GameObject: {fileID: 0}
  m_Enabled: 1
  m_EditorHideFlags: 0
  m_Script: {fileID: 11500000, guid: afb37ee48aef7449d9e6226d1988de0d, type: 3}
  m_Name: uidata_global
  m_EditorClassIdentifier: 
  dataStorageTypeList:
  - UiDataStorageNodeStringValue
  - UiDataStorageNodeLegacyTimer
  mapEntryList:
  - key: UiDataStorageNodeStringValue
    value:
    - {fileID: 114000012517020832}
    - {fileID: 114000011860518496}
    - {fileID: 114000012342769276}
    - {fileID: 114000013261582616}
  globalData: 1
--- !u!114 &114000011860518496
MonoBehaviour:
  m_ObjectHideFlags: 0
  m_PrefabParentObject: {fileID: 0}
  m_PrefabInternal: {fileID: 0}
  m_GameObject: {fileID: 0}
  m_Enabled: 1
  m_EditorHideFlags: 0
  m_Script: {fileID: 11500000, guid: 4f8e74c114a4847ca8b56e0309e538e0, type: 3}
  m_Name: uidata_global
  m_EditorClassIdentifier: 
  asset: {fileID: 11400000}
  identifier: string_global_softcurrency
  value: "\x81"
--- !u!114 &114000012342769276
MonoBehaviour:
  m_ObjectHideFlags: 0
  m_PrefabParentObject: {fileID: 0}
  m_PrefabInternal: {fileID: 0}
  m_GameObject: {fileID: 0}
  m_Enabled: 1
  m_EditorHideFlags: 0
  m_Script: {fileID: 11500000, guid: 4f8e74c114a4847ca8b56e0309e538e0, type: 3}
  m_Name: uidata_global
  m_EditorClassIdentifier: 
  asset: {fileID: 11400000}
  identifier: string_global_softcurrency_increment
  value: "+\x81"
--- !u!114 &114000012517020832
MonoBehaviour:
  m_ObjectHideFlags: 0
  m_PrefabParentObject: {fileID: 0}
  m_PrefabInternal: {fileID: 0}
  m_GameObject: {fileID: 0}
  m_Enabled: 1
  m_EditorHideFlags: 0
  m_Script: {fileID: 11500000, guid: 4f8e74c114a4847ca8b56e0309e538e0, type: 3}
  m_Name: uidata_global
  m_EditorClassIdentifier: 
  asset: {fileID: 11400000}
  identifier: string_global_hardcurrency
  value: "\x80"
--- !u!114 &114000013261582616
MonoBehaviour:
  m_ObjectHideFlags: 0
  m_PrefabParentObject: {fileID: 0}
  m_PrefabInternal: {fileID: 0}
  m_GameObject: {fileID: 0}
  m_Enabled: 1
  m_EditorHideFlags: 0
  m_Script: {fileID: 11500000, guid: 4f8e74c114a4847ca8b56e0309e538e0, type: 3}
  m_Name: uidata_global
  m_EditorClassIdentifier: 
  asset: {fileID: 11400000}
  identifier: string_global_cards
  value: "\x83 "
