%YAML 1.1
%TAG !u! tag:unity3d.com,2011:
--- !u!114 &11400000
MonoBehaviour:
  m_ObjectHideFlags: 0
  m_PrefabParentObject: {fileID: 0}
  m_PrefabInternal: {fileID: 0}
  m_GameObject: {fileID: 0}
  m_Enabled: 1
  m_EditorHideFlags: 0
  m_Script: {fileID: 11500000, guid: ac01559e19606472487b7fae1e87440e, type: 3}
  m_Name: uidata_game_hud_onboarding_sheets
  m_EditorClassIdentifier: 
  sheetId: 
  masterSheetGid: 
  allowFetch: 0
