%YAML 1.1
%TAG !u! tag:unity3d.com,2011:
--- !u!74 &7400000
AnimationClip:
  m_ObjectHideFlags: 0
  m_PrefabParentObject: {fileID: 0}
  m_PrefabInternal: {fileID: 0}
  m_Name: uianimation_hud_animation_enter_short
  serializedVersion: 6
  m_Legacy: 1
  m_Compressed: 0
  m_UseHighQualityCurve: 1
  m_RotationCurves: []
  m_CompressedRotationCurves: []
  m_EulerCurves: []
  m_PositionCurves: []
  m_ScaleCurves:
  - curve:
      serializedVersion: 2
      m_Curve:
      - time: 0
        value: {x: 0, y: 0, z: 1}
        inSlope: {x: 5.1428576, y: 5.1428576, z: 0}
        outSlope: {x: 5.1428576, y: 5.1428576, z: 0}
        tangentMode: 0
      - time: 0.23333333
        value: {x: 1.2, y: 1.2, z: 1}
        inSlope: {x: 1.0714287, y: 1.0714287, z: 0}
        outSlope: {x: 1.0714287, y: 1.0714287, z: 0}
        tangentMode: 0
      - time: 0.3
        value: {x: 1, y: 1, z: 1}
        inSlope: {x: -3.0000002, y: -3.0000002, z: 0}
        outSlope: {x: -3.0000002, y: -3.0000002, z: 0}
        tangentMode: 0
      m_PreInfinity: 2
      m_PostInfinity: 2
      m_RotationOrder: 4
    path: JunctionRings
  m_FloatCurves:
  - curve:
      serializedVersion: 2
      m_Curve:
      - time: 0.11666667
        value: -138
        inSlope: 1079.3333
        outSlope: 1079.3333
        tangentMode: 10
      - time: 0.26666668
        value: 23.900002
        inSlope: -0.023541292
        outSlope: -0.023541292
        tangentMode: 0
      - time: 0.3
        value: 3
        inSlope: -627.00006
        outSlope: -627.00006
        tangentMode: 10
      m_PreInfinity: 2
      m_PostInfinity: 2
      m_RotationOrder: 4
    attribute: m_AnchoredPosition.x
    path: CityLevel/person_menu
    classID: 224
    script: {fileID: 0}
  - curve:
      serializedVersion: 2
      m_Curve:
      - time: 0.25
        value: 0.69572
        inSlope: 0
        outSlope: 0
        tangentMode: 10
      m_PreInfinity: 2
      m_PostInfinity: 2
      m_RotationOrder: 4
    attribute: m_SizeDelta.y
    path: CityLevel/Level
    classID: 224
    script: {fileID: 0}
  - curve:
      serializedVersion: 2
      m_Curve:
      - time: 0.25
        value: -0.000030518
        inSlope: 0
        outSlope: 0
        tangentMode: 10
      m_PreInfinity: 2
      m_PostInfinity: 2
      m_RotationOrder: 4
    attribute: m_SizeDelta.x
    path: CityLevel/City
    classID: 224
    script: {fileID: 0}
  - curve:
      serializedVersion: 2
      m_Curve:
      - time: 0
        value: 153
        inSlope: -810
        outSlope: -810
        tangentMode: 10
      - time: 0.2
        value: -9
        inSlope: 0.21963614
        outSlope: 0.21963614
        tangentMode: 0
      - time: 0.25
        value: 0
        inSlope: 180.00002
        outSlope: 180.00002
        tangentMode: 10
      m_PreInfinity: 2
      m_PostInfinity: 2
      m_RotationOrder: 4
    attribute: m_AnchoredPosition.y
    path: CityLevel/City
    classID: 224
    script: {fileID: 0}
  - curve:
      serializedVersion: 2
      m_Curve:
      - time: 0.25
        value: 0
        inSlope: 0
        outSlope: 0
        tangentMode: 10
      m_PreInfinity: 2
      m_PostInfinity: 2
      m_RotationOrder: 4
    attribute: m_SizeDelta.y
    path: CityLevel/City
    classID: 224
    script: {fileID: 0}
  - curve:
      serializedVersion: 2
      m_Curve:
      - time: 0
        value: 0.000022888184
        inSlope: 0
        outSlope: 0
        tangentMode: 10
      - time: 0.25
        value: 0.000022888184
        inSlope: 0
        outSlope: 0
        tangentMode: 10
      m_PreInfinity: 2
      m_PostInfinity: 2
      m_RotationOrder: 4
    attribute: m_AnchoredPosition.x
    path: CityLevel/City
    classID: 224
    script: {fileID: 0}
  - curve:
      serializedVersion: 2
      m_Curve:
      - time: 0
        value: -1.7285184
        inSlope: 0
        outSlope: 0
        tangentMode: 10
      - time: 0.25
        value: -1.7285184
        inSlope: 0
        outSlope: 0
        tangentMode: 10
      m_PreInfinity: 2
      m_PostInfinity: 2
      m_RotationOrder: 4
    attribute: m_AnchoredPosition.x
    path: CityLevel/Level
    classID: 224
    script: {fileID: 0}
  - curve:
      serializedVersion: 2
      m_Curve:
      - time: 0
        value: 151
        inSlope: -810
        outSlope: -810
        tangentMode: 10
      - time: 0.2
        value: -11
        inSlope: 0.20219043
        outSlope: 0.20219043
        tangentMode: 0
      - time: 0.25
        value: -2.8532634
        inSlope: 162.93474
        outSlope: 162.93474
        tangentMode: 10
      m_PreInfinity: 2
      m_PostInfinity: 2
      m_RotationOrder: 4
    attribute: m_AnchoredPosition.y
    path: CityLevel/Level
    classID: 224
    script: {fileID: 0}
  - curve:
      serializedVersion: 2
      m_Curve:
      - time: 0
        value: 154
        inSlope: -972
        outSlope: -972
        tangentMode: 10
      - time: 0.16666667
        value: -8
        inSlope: -301.59265
        outSlope: -301.59265
        tangentMode: 10
      - time: 0.2
        value: 4.2938232
        inSlope: 368.81473
        outSlope: 368.81473
        tangentMode: 10
      m_PreInfinity: 2
      m_PostInfinity: 2
      m_RotationOrder: 4
    attribute: m_AnchoredPosition.x
    path: Bottom_right/Buildings
    classID: 224
    script: {fileID: 0}
  - curve:
      serializedVersion: 2
      m_Curve:
      - time: 0
        value: 0
        inSlope: 0
        outSlope: 0
        tangentMode: 10
      - time: 0.16666667
        value: 0
        inSlope: 0
        outSlope: 0
        tangentMode: 10
      - time: 0.2
        value: 0
        inSlope: 0
        outSlope: 0
        tangentMode: 10
      m_PreInfinity: 2
      m_PostInfinity: 2
      m_RotationOrder: 4
    attribute: m_AnchoredPosition.y
    path: Bottom_right/Buildings
    classID: 224
    script: {fileID: 0}
  - curve:
      serializedVersion: 2
      m_Curve:
      - time: 0
        value: -34.1
        inSlope: 1972
        outSlope: 1972
        tangentMode: 10
      - time: 0.05
        value: 64.5
        inSlope: 743.1667
        outSlope: 743.1667
        tangentMode: 10
      - time: 0.2
        value: -8.349998
        inSlope: -162.36334
        outSlope: -162.36334
        tangentMode: 10
      - time: 0.28333333
        value: 5.061661
        inSlope: 160.93993
        outSlope: 160.93993
        tangentMode: 10
      m_PreInfinity: 2
      m_PostInfinity: 2
      m_RotationOrder: 4
    attribute: m_AnchoredPosition.y
    path: Bottom_left/Chests
    classID: 224
    script: {fileID: 0}
  - curve:
      serializedVersion: 2
      m_Curve:
      - time: 0
        value: -226.4
        inSlope: 3307.9998
        outSlope: 3307.9998
        tangentMode: 10
      - time: 0.05
        value: -61
        inSlope: 1912.6401
        outSlope: 1912.6401
        tangentMode: 10
      - time: 0.2
        value: 16.592083
        inSlope: 158.86302
        outSlope: 158.86302
        tangentMode: 10
      - time: 0.28333333
        value: -0.037460327
        inSlope: -199.55453
        outSlope: -199.55453
        tangentMode: 10
      m_PreInfinity: 2
      m_PostInfinity: 2
      m_RotationOrder: 4
    attribute: m_AnchoredPosition.x
    path: Bottom_left/Chests
    classID: 224
    script: {fileID: 0}
  - curve:
      serializedVersion: 2
      m_Curve:
      - time: 0
        value: -452.8
        inSlope: 6615.9995
        outSlope: 6615.9995
        tangentMode: 10
      - time: 0.05
        value: -122
        inSlope: 3822.333
        outSlope: 3822.333
        tangentMode: 10
      - time: 0.2
        value: 32.3
        inSlope: 320.30865
        outSlope: 320.30865
        tangentMode: 10
      - time: 0.28333333
        value: -0.037445
        inSlope: -388.04935
        outSlope: -388.04935
        tangentMode: 10
      m_PreInfinity: 2
      m_PostInfinity: 2
      m_RotationOrder: 4
    attribute: m_SizeDelta.x
    path: Bottom_left/Chests
    classID: 224
    script: {fileID: 0}
  - curve:
      serializedVersion: 2
      m_Curve:
      - time: 0
        value: -182.6
        inSlope: 1274.0001
        outSlope: 1274.0001
        tangentMode: 10
      - time: 0.05
        value: -118.9
        inSlope: 1089
        outSlope: 1089
        tangentMode: 10
      - time: 0.2
        value: 16.7
        inSlope: 352.03006
        outSlope: 352.03006
        tangentMode: 10
      - time: 0.28333333
        value: 0.038345
        inSlope: -199.93988
        outSlope: -199.93988
        tangentMode: 10
      m_PreInfinity: 2
      m_PostInfinity: 2
      m_RotationOrder: 4
    attribute: m_SizeDelta.y
    path: Bottom_left/Chests
    classID: 224
    script: {fileID: 0}
  - curve:
      serializedVersion: 2
      m_Curve:
      - time: 0
        value: 0
        inSlope: Infinity
        outSlope: Infinity
        tangentMode: 31
      - time: 0.016666668
        value: 1
        inSlope: Infinity
        outSlope: Infinity
        tangentMode: 31
      m_PreInfinity: 2
      m_PostInfinity: 2
      m_RotationOrder: 4
    attribute: m_IsActive
    path: Bottom_left/Chests
    classID: 1
    script: {fileID: 0}
  - curve:
      serializedVersion: 2
      m_Curve:
      - time: 0
        value: 46.7
        inSlope: -1705.4999
        outSlope: -1705.4999
        tangentMode: 10
      - time: 0.06666667
        value: -66.99999
        inSlope: -799.3499
        outSlope: -799.3499
        tangentMode: 10
      - time: 0.15
        value: -58.09999
        inSlope: 106.80002
        outSlope: 106.80002
        tangentMode: 10
      m_PreInfinity: 2
      m_PostInfinity: 2
      m_RotationOrder: 4
    attribute: m_AnchoredPosition.y
    path: Currencies/HardCurrency
    classID: 224
    script: {fileID: 0}
  - curve:
      serializedVersion: 2
      m_Curve:
      - time: 0
        value: -303.5
        inSlope: 0
        outSlope: 0
        tangentMode: 10
      - time: 0.15
        value: -303.5
        inSlope: 0
        outSlope: 0
        tangentMode: 10
      m_PreInfinity: 2
      m_PostInfinity: 2
      m_RotationOrder: 4
    attribute: m_AnchoredPosition.x
    path: Currencies/HardCurrency
    classID: 224
    script: {fileID: 0}
  - curve:
      serializedVersion: 2
      m_Curve:
      - time: 0.05
        value: 46.69999
        inSlope: -682.1998
        outSlope: -682.1998
        tangentMode: 10
      - time: 0.21666667
        value: -66.999985
        inSlope: -287.7
        outSlope: -287.7
        tangentMode: 10
      - time: 0.3
        value: -58.1
        inSlope: 106.79982
        outSlope: 106.79982
        tangentMode: 10
      m_PreInfinity: 2
      m_PostInfinity: 2
      m_RotationOrder: 4
    attribute: m_AnchoredPosition.y
    path: Currencies/SoftCurrency
    classID: 224
    script: {fileID: 0}
  - curve:
      serializedVersion: 2
      m_Curve:
      - time: 0.05
        value: -20.131805
        inSlope: -1.227356
        outSlope: -1.227356
        tangentMode: 10
      - time: 0.21666667
        value: -20.336365
        inSlope: -1.5954894
        outSlope: -1.5954894
        tangentMode: 10
      - time: 0.3
        value: -20.5
        inSlope: -1.9636228
        outSlope: -1.9636228
        tangentMode: 10
      m_PreInfinity: 2
      m_PostInfinity: 2
      m_RotationOrder: 4
    attribute: m_AnchoredPosition.x
    path: Currencies/SoftCurrency
    classID: 224
    script: {fileID: 0}
  - curve:
      serializedVersion: 2
      m_Curve:
      - time: 0
        value: -2.9650002
        inSlope: -3.6782975
        outSlope: -3.6782975
        tangentMode: 10
      - time: 0.18333334
        value: -3.6393547
        inSlope: 13.758068
        outSlope: 13.758068
        tangentMode: 10
      - time: 0.3
        value: -0.0000038146973
        inSlope: 31.194433
        outSlope: 31.194433
        tangentMode: 10
      m_PreInfinity: 2
      m_PostInfinity: 2
      m_RotationOrder: 4
    attribute: m_AnchoredPosition.x
    path: Bottom_left/Chests/Button (1)/Image
    classID: 224
    script: {fileID: 0}
  - curve:
      serializedVersion: 2
      m_Curve:
      - time: 0
        value: -3.5124922
        inSlope: 19.699995
        outSlope: 19.699995
        tangentMode: 10
      - time: 0.18333334
        value: 0.099173546
        inSlope: 6.22639
        outSlope: 6.22639
        tangentMode: 10
      - time: 0.3
        value: -0.746335
        inSlope: -7.2472157
        outSlope: -7.2472157
        tangentMode: 10
      m_PreInfinity: 2
      m_PostInfinity: 2
      m_RotationOrder: 4
    attribute: m_AnchoredPosition.y
    path: Bottom_left/Chests/Button (1)/Image
    classID: 224
    script: {fileID: 0}
  - curve:
      serializedVersion: 2
      m_Curve:
      - time: 0
        value: 0
        inSlope: -0.0000025828679
        outSlope: -0.0000025828679
        tangentMode: 10
      - time: 0.3
        value: -0.0000007748604
        inSlope: -0.0000025828679
        outSlope: -0.0000025828679
        tangentMode: 10
      m_PreInfinity: 2
      m_PostInfinity: 2
      m_RotationOrder: 4
    attribute: m_AnchoredPosition.x
    path: Bottom_left/Chests/Red/Button (1)/Image
    classID: 224
    script: {fileID: 0}
  - curve:
      serializedVersion: 2
      m_Curve:
      - time: 0
        value: 0
        inSlope: 0
        outSlope: 0
        tangentMode: 10
      - time: 0.3
        value: 0
        inSlope: 0
        outSlope: 0
        tangentMode: 10
      m_PreInfinity: 2
      m_PostInfinity: 2
      m_RotationOrder: 4
    attribute: m_SizeDelta.x
    path: Bottom_left/Chests/Red/Button (1)/Image
    classID: 224
    script: {fileID: 0}
  - curve:
      serializedVersion: 2
      m_Curve:
      - time: 0
        value: 0
        inSlope: 0
        outSlope: 0
        tangentMode: 10
      - time: 0.3
        value: 0
        inSlope: 0
        outSlope: 0
        tangentMode: 10
      m_PreInfinity: 2
      m_PostInfinity: 2
      m_RotationOrder: 4
    attribute: m_AnchoredPosition.y
    path: Bottom_left/Chests/Red/Button (1)/Image
    classID: 224
    script: {fileID: 0}
  - curve:
      serializedVersion: 2
      m_Curve:
      - time: 0
        value: 0
        inSlope: 0
        outSlope: 0
        tangentMode: 10
      - time: 0.3
        value: 0
        inSlope: 0
        outSlope: 0
        tangentMode: 10
      m_PreInfinity: 2
      m_PostInfinity: 2
      m_RotationOrder: 4
    attribute: m_SizeDelta.y
    path: Bottom_left/Chests/Red/Button (1)/Image
    classID: 224
    script: {fileID: 0}
  - curve:
      serializedVersion: 2
      m_Curve:
      - time: 0
        value: 46.7
        inSlope: -1705.4999
        outSlope: -1705.4999
        tangentMode: 10
      - time: 0.06666667
        value: -66.99999
        inSlope: -799.3499
        outSlope: -799.3499
        tangentMode: 10
      - time: 0.15
        value: -58.09999
        inSlope: 106.80002
        outSlope: 106.80002
        tangentMode: 10
      m_PreInfinity: 2
      m_PostInfinity: 2
      m_RotationOrder: 4
    attribute: m_AnchoredPosition.y
    path: prefab_ui_currencies/HardCurrency
    classID: 224
    script: {fileID: 0}
  - curve:
      serializedVersion: 2
      m_Curve:
      - time: 0
        value: -20.131805
        inSlope: -3.0683897
        outSlope: -3.0683897
        tangentMode: 10
      - time: 0.06666667
        value: -20.336365
        inSlope: -2.5160065
        outSlope: -2.5160065
        tangentMode: 10
      - time: 0.15
        value: -20.5
        inSlope: -1.963623
        outSlope: -1.963623
        tangentMode: 10
      m_PreInfinity: 2
      m_PostInfinity: 2
      m_RotationOrder: 4
    attribute: m_AnchoredPosition.x
    path: prefab_ui_currencies/SoftCurrency
    classID: 224
    script: {fileID: 0}
  - curve:
      serializedVersion: 2
      m_Curve:
      - time: 0
        value: 46.69999
        inSlope: -1705.4995
        outSlope: -1705.4995
        tangentMode: 10
      - time: 0.06666667
        value: -66.999985
        inSlope: -799.34985
        outSlope: -799.34985
        tangentMode: 10
      - time: 0.15
        value: -58.1
        inSlope: 106.799835
        outSlope: 106.799835
        tangentMode: 10
      m_PreInfinity: 2
      m_PostInfinity: 2
      m_RotationOrder: 4
    attribute: m_AnchoredPosition.y
    path: prefab_ui_currencies/SoftCurrency
    classID: 224
    script: {fileID: 0}
  - curve:
      serializedVersion: 2
      m_Curve:
      - time: 0
        value: -138
        inSlope: 0
        outSlope: 0
        tangentMode: 10
      - time: 0.1
        value: -138
        inSlope: 0
        outSlope: 539.66675
        tangentMode: 5
      - time: 0.25
        value: 23.900002
        inSlope: -0.019959616
        outSlope: -0.019959616
        tangentMode: 0
      - time: 0.28333333
        value: 3
        inSlope: -627.00006
        outSlope: -627.00006
        tangentMode: 10
      m_PreInfinity: 2
      m_PostInfinity: 2
      m_RotationOrder: 4
    attribute: m_AnchoredPosition.x
    path: CityLevel/AchievementMenuButton
    classID: 224
    script: {fileID: 0}
  m_PPtrCurves: []
  m_SampleRate: 60
  m_WrapMode: 0
  m_Bounds:
    m_Center: {x: 0, y: 0, z: 0}
    m_Extent: {x: 0, y: 0, z: 0}
  m_ClipBindingConstant:
    genericBindings: []
    pptrCurveMapping: []
  m_AnimationClipSettings:
    serializedVersion: 2
    m_AdditiveReferencePoseClip: {fileID: 0}
    m_AdditiveReferencePoseTime: 0
    m_StartTime: 0
    m_StopTime: 0.3
    m_OrientationOffsetY: 0
    m_Level: 0
    m_CycleOffset: 0
    m_HasAdditiveReferencePose: 0
    m_LoopTime: 0
    m_LoopBlend: 0
    m_LoopBlendOrientation: 0
    m_LoopBlendPositionY: 0
    m_LoopBlendPositionXZ: 0
    m_KeepOriginalOrientation: 0
    m_KeepOriginalPositionY: 1
    m_KeepOriginalPositionXZ: 0
    m_HeightFromFeet: 0
    m_Mirror: 0
  m_EditorCurves:
  - curve:
      serializedVersion: 2
      m_Curve:
      - time: 0.11666667
        value: -138
        inSlope: 1079.3333
        outSlope: 1079.3333
        tangentMode: 10
      - time: 0.26666668
        value: 23.900002
        inSlope: -0.023541292
        outSlope: -0.023541292
        tangentMode: 0
      - time: 0.3
        value: 3
        inSlope: -627.00006
        outSlope: -627.00006
        tangentMode: 10
      m_PreInfinity: 2
      m_PostInfinity: 2
      m_RotationOrder: 4
    attribute: m_AnchoredPosition.x
    path: CityLevel/person_menu
    classID: 224
    script: {fileID: 0}
  - curve:
      serializedVersion: 2
      m_Curve:
      - time: 0.25
        value: 0.69572
        inSlope: 0
        outSlope: 0
        tangentMode: 10
      m_PreInfinity: 2
      m_PostInfinity: 2
      m_RotationOrder: 4
    attribute: m_SizeDelta.y
    path: CityLevel/Level
    classID: 224
    script: {fileID: 0}
  - curve:
      serializedVersion: 2
      m_Curve:
      - time: 0.25
        value: -0.000030518
        inSlope: 0
        outSlope: 0
        tangentMode: 10
      m_PreInfinity: 2
      m_PostInfinity: 2
      m_RotationOrder: 4
    attribute: m_SizeDelta.x
    path: CityLevel/City
    classID: 224
    script: {fileID: 0}
  - curve:
      serializedVersion: 2
      m_Curve:
      - time: 0
        value: 153
        inSlope: -810
        outSlope: -810
        tangentMode: 10
      - time: 0.2
        value: -9
        inSlope: 0.21963614
        outSlope: 0.21963614
        tangentMode: 0
      - time: 0.25
        value: 0
        inSlope: 180.00002
        outSlope: 180.00002
        tangentMode: 10
      m_PreInfinity: 2
      m_PostInfinity: 2
      m_RotationOrder: 4
    attribute: m_AnchoredPosition.y
    path: CityLevel/City
    classID: 224
    script: {fileID: 0}
  - curve:
      serializedVersion: 2
      m_Curve:
      - time: 0.25
        value: 0
        inSlope: 0
        outSlope: 0
        tangentMode: 10
      m_PreInfinity: 2
      m_PostInfinity: 2
      m_RotationOrder: 4
    attribute: m_SizeDelta.y
    path: CityLevel/City
    classID: 224
    script: {fileID: 0}
  - curve:
      serializedVersion: 2
      m_Curve:
      - time: 0
        value: 0.000022888184
        inSlope: 0
        outSlope: 0
        tangentMode: 10
      - time: 0.25
        value: 0.000022888184
        inSlope: 0
        outSlope: 0
        tangentMode: 10
      m_PreInfinity: 2
      m_PostInfinity: 2
      m_RotationOrder: 4
    attribute: m_AnchoredPosition.x
    path: CityLevel/City
    classID: 224
    script: {fileID: 0}
  - curve:
      serializedVersion: 2
      m_Curve:
      - time: 0
        value: -1.7285184
        inSlope: 0
        outSlope: 0
        tangentMode: 10
      - time: 0.25
        value: -1.7285184
        inSlope: 0
        outSlope: 0
        tangentMode: 10
      m_PreInfinity: 2
      m_PostInfinity: 2
      m_RotationOrder: 4
    attribute: m_AnchoredPosition.x
    path: CityLevel/Level
    classID: 224
    script: {fileID: 0}
  - curve:
      serializedVersion: 2
      m_Curve:
      - time: 0
        value: 151
        inSlope: -810
        outSlope: -810
        tangentMode: 10
      - time: 0.2
        value: -11
        inSlope: 0.20219043
        outSlope: 0.20219043
        tangentMode: 0
      - time: 0.25
        value: -2.8532634
        inSlope: 162.93474
        outSlope: 162.93474
        tangentMode: 10
      m_PreInfinity: 2
      m_PostInfinity: 2
      m_RotationOrder: 4
    attribute: m_AnchoredPosition.y
    path: CityLevel/Level
    classID: 224
    script: {fileID: 0}
  - curve:
      serializedVersion: 2
      m_Curve:
      - time: 0
        value: 154
        inSlope: -972
        outSlope: -972
        tangentMode: 10
      - time: 0.16666667
        value: -8
        inSlope: -301.59265
        outSlope: -301.59265
        tangentMode: 10
      - time: 0.2
        value: 4.2938232
        inSlope: 368.81473
        outSlope: 368.81473
        tangentMode: 10
      m_PreInfinity: 2
      m_PostInfinity: 2
      m_RotationOrder: 4
    attribute: m_AnchoredPosition.x
    path: Bottom_right/Buildings
    classID: 224
    script: {fileID: 0}
  - curve:
      serializedVersion: 2
      m_Curve:
      - time: 0
        value: 0
        inSlope: 0
        outSlope: 0
        tangentMode: 10
      - time: 0.16666667
        value: 0
        inSlope: 0
        outSlope: 0
        tangentMode: 10
      - time: 0.2
        value: 0
        inSlope: 0
        outSlope: 0
        tangentMode: 10
      m_PreInfinity: 2
      m_PostInfinity: 2
      m_RotationOrder: 4
    attribute: m_AnchoredPosition.y
    path: Bottom_right/Buildings
    classID: 224
    script: {fileID: 0}
  - curve:
      serializedVersion: 2
      m_Curve:
      - time: 0
        value: 0
        inSlope: 5.1428576
        outSlope: 5.1428576
        tangentMode: 10
      - time: 0.23333333
        value: 1.2
        inSlope: 1.0714287
        outSlope: 1.0714287
        tangentMode: 10
      - time: 0.3
        value: 1
        inSlope: -3.0000002
        outSlope: -3.0000002
        tangentMode: 10
      m_PreInfinity: 2
      m_PostInfinity: 2
      m_RotationOrder: 4
    attribute: m_LocalScale.x
    path: JunctionRings
    classID: 224
    script: {fileID: 0}
  - curve:
      serializedVersion: 2
      m_Curve:
      - time: 0
        value: 0
        inSlope: 5.1428576
        outSlope: 5.1428576
        tangentMode: 10
      - time: 0.23333333
        value: 1.2
        inSlope: 1.0714287
        outSlope: 1.0714287
        tangentMode: 10
      - time: 0.3
        value: 1
        inSlope: -3.0000002
        outSlope: -3.0000002
        tangentMode: 10
      m_PreInfinity: 2
      m_PostInfinity: 2
      m_RotationOrder: 4
    attribute: m_LocalScale.y
    path: JunctionRings
    classID: 224
    script: {fileID: 0}
  - curve:
      serializedVersion: 2
      m_Curve:
      - time: 0
        value: 1
        inSlope: 0
        outSlope: 0
        tangentMode: 10
      - time: 0.23333333
        value: 1
        inSlope: 0
        outSlope: 0
        tangentMode: 10
      - time: 0.3
        value: 1
        inSlope: 0
        outSlope: 0
        tangentMode: 10
      m_PreInfinity: 2
      m_PostInfinity: 2
      m_RotationOrder: 4
    attribute: m_LocalScale.z
    path: JunctionRings
    classID: 224
    script: {fileID: 0}
  - curve:
      serializedVersion: 2
      m_Curve:
      - time: 0
        value: -34.1
        inSlope: 1972
        outSlope: 1972
        tangentMode: 10
      - time: 0.05
        value: 64.5
        inSlope: 743.1667
        outSlope: 743.1667
        tangentMode: 10
      - time: 0.2
        value: -8.349998
        inSlope: -162.36334
        outSlope: -162.36334
        tangentMode: 10
      - time: 0.28333333
        value: 5.061661
        inSlope: 160.93993
        outSlope: 160.93993
        tangentMode: 10
      m_PreInfinity: 2
      m_PostInfinity: 2
      m_RotationOrder: 4
    attribute: m_AnchoredPosition.y
    path: Bottom_left/Chests
    classID: 224
    script: {fileID: 0}
  - curve:
      serializedVersion: 2
      m_Curve:
      - time: 0
        value: -226.4
        inSlope: 3307.9998
        outSlope: 3307.9998
        tangentMode: 10
      - time: 0.05
        value: -61
        inSlope: 1912.6401
        outSlope: 1912.6401
        tangentMode: 10
      - time: 0.2
        value: 16.592083
        inSlope: 158.86302
        outSlope: 158.86302
        tangentMode: 10
      - time: 0.28333333
        value: -0.037460327
        inSlope: -199.55453
        outSlope: -199.55453
        tangentMode: 10
      m_PreInfinity: 2
      m_PostInfinity: 2
      m_RotationOrder: 4
    attribute: m_AnchoredPosition.x
    path: Bottom_left/Chests
    classID: 224
    script: {fileID: 0}
  - curve:
      serializedVersion: 2
      m_Curve:
      - time: 0
        value: -452.8
        inSlope: 6615.9995
        outSlope: 6615.9995
        tangentMode: 10
      - time: 0.05
        value: -122
        inSlope: 3822.333
        outSlope: 3822.333
        tangentMode: 10
      - time: 0.2
        value: 32.3
        inSlope: 320.30865
        outSlope: 320.30865
        tangentMode: 10
      - time: 0.28333333
        value: -0.037445
        inSlope: -388.04935
        outSlope: -388.04935
        tangentMode: 10
      m_PreInfinity: 2
      m_PostInfinity: 2
      m_RotationOrder: 4
    attribute: m_SizeDelta.x
    path: Bottom_left/Chests
    classID: 224
    script: {fileID: 0}
  - curve:
      serializedVersion: 2
      m_Curve:
      - time: 0
        value: -182.6
        inSlope: 1274.0001
        outSlope: 1274.0001
        tangentMode: 10
      - time: 0.05
        value: -118.9
        inSlope: 1089
        outSlope: 1089
        tangentMode: 10
      - time: 0.2
        value: 16.7
        inSlope: 352.03006
        outSlope: 352.03006
        tangentMode: 10
      - time: 0.28333333
        value: 0.038345
        inSlope: -199.93988
        outSlope: -199.93988
        tangentMode: 10
      m_PreInfinity: 2
      m_PostInfinity: 2
      m_RotationOrder: 4
    attribute: m_SizeDelta.y
    path: Bottom_left/Chests
    classID: 224
    script: {fileID: 0}
  - curve:
      serializedVersion: 2
      m_Curve:
      - time: 0
        value: 0
        inSlope: Infinity
        outSlope: Infinity
        tangentMode: 31
      - time: 0.016666668
        value: 1
        inSlope: Infinity
        outSlope: Infinity
        tangentMode: 31
      m_PreInfinity: 2
      m_PostInfinity: 2
      m_RotationOrder: 4
    attribute: m_IsActive
    path: Bottom_left/Chests
    classID: 1
    script: {fileID: 0}
  - curve:
      serializedVersion: 2
      m_Curve:
      - time: 0
        value: 46.7
        inSlope: -1705.4999
        outSlope: -1705.4999
        tangentMode: 10
      - time: 0.06666667
        value: -66.99999
        inSlope: -799.3499
        outSlope: -799.3499
        tangentMode: 10
      - time: 0.15
        value: -58.09999
        inSlope: 106.80002
        outSlope: 106.80002
        tangentMode: 10
      m_PreInfinity: 2
      m_PostInfinity: 2
      m_RotationOrder: 4
    attribute: m_AnchoredPosition.y
    path: Currencies/HardCurrency
    classID: 224
    script: {fileID: 0}
  - curve:
      serializedVersion: 2
      m_Curve:
      - time: 0
        value: -303.5
        inSlope: 0
        outSlope: 0
        tangentMode: 10
      - time: 0.15
        value: -303.5
        inSlope: 0
        outSlope: 0
        tangentMode: 10
      m_PreInfinity: 2
      m_PostInfinity: 2
      m_RotationOrder: 4
    attribute: m_AnchoredPosition.x
    path: Currencies/HardCurrency
    classID: 224
    script: {fileID: 0}
  - curve:
      serializedVersion: 2
      m_Curve:
      - time: 0.05
        value: 46.69999
        inSlope: -682.1998
        outSlope: -682.1998
        tangentMode: 10
      - time: 0.21666667
        value: -66.999985
        inSlope: -287.7
        outSlope: -287.7
        tangentMode: 10
      - time: 0.3
        value: -58.1
        inSlope: 106.79982
        outSlope: 106.79982
        tangentMode: 10
      m_PreInfinity: 2
      m_PostInfinity: 2
      m_RotationOrder: 4
    attribute: m_AnchoredPosition.y
    path: Currencies/SoftCurrency
    classID: 224
    script: {fileID: 0}
  - curve:
      serializedVersion: 2
      m_Curve:
      - time: 0.05
        value: -20.131805
        inSlope: -1.227356
        outSlope: -1.227356
        tangentMode: 10
      - time: 0.21666667
        value: -20.336365
        inSlope: -1.5954894
        outSlope: -1.5954894
        tangentMode: 10
      - time: 0.3
        value: -20.5
        inSlope: -1.9636228
        outSlope: -1.9636228
        tangentMode: 10
      m_PreInfinity: 2
      m_PostInfinity: 2
      m_RotationOrder: 4
    attribute: m_AnchoredPosition.x
    path: Currencies/SoftCurrency
    classID: 224
    script: {fileID: 0}
  - curve:
      serializedVersion: 2
      m_Curve:
      - time: 0
        value: -2.9650002
        inSlope: -3.6782975
        outSlope: -3.6782975
        tangentMode: 10
      - time: 0.18333334
        value: -3.6393547
        inSlope: 13.758068
        outSlope: 13.758068
        tangentMode: 10
      - time: 0.3
        value: -0.0000038146973
        inSlope: 31.194433
        outSlope: 31.194433
        tangentMode: 10
      m_PreInfinity: 2
      m_PostInfinity: 2
      m_RotationOrder: 4
    attribute: m_AnchoredPosition.x
    path: Bottom_left/Chests/Button (1)/Image
    classID: 224
    script: {fileID: 0}
  - curve:
      serializedVersion: 2
      m_Curve:
      - time: 0
        value: -3.5124922
        inSlope: 19.699995
        outSlope: 19.699995
        tangentMode: 10
      - time: 0.18333334
        value: 0.099173546
        inSlope: 6.22639
        outSlope: 6.22639
        tangentMode: 10
      - time: 0.3
        value: -0.746335
        inSlope: -7.2472157
        outSlope: -7.2472157
        tangentMode: 10
      m_PreInfinity: 2
      m_PostInfinity: 2
      m_RotationOrder: 4
    attribute: m_AnchoredPosition.y
    path: Bottom_left/Chests/Button (1)/Image
    classID: 224
    script: {fileID: 0}
  - curve:
      serializedVersion: 2
      m_Curve:
      - time: 0
        value: 0
        inSlope: -0.0000025828679
        outSlope: -0.0000025828679
        tangentMode: 10
      - time: 0.3
        value: -0.0000007748604
        inSlope: -0.0000025828679
        outSlope: -0.0000025828679
        tangentMode: 10
      m_PreInfinity: 2
      m_PostInfinity: 2
      m_RotationOrder: 4
    attribute: m_AnchoredPosition.x
    path: Bottom_left/Chests/Red/Button (1)/Image
    classID: 224
    script: {fileID: 0}
  - curve:
      serializedVersion: 2
      m_Curve:
      - time: 0
        value: 0
        inSlope: 0
        outSlope: 0
        tangentMode: 10
      - time: 0.3
        value: 0
        inSlope: 0
        outSlope: 0
        tangentMode: 10
      m_PreInfinity: 2
      m_PostInfinity: 2
      m_RotationOrder: 4
    attribute: m_SizeDelta.x
    path: Bottom_left/Chests/Red/Button (1)/Image
    classID: 224
    script: {fileID: 0}
  - curve:
      serializedVersion: 2
      m_Curve:
      - time: 0
        value: 0
        inSlope: 0
        outSlope: 0
        tangentMode: 10
      - time: 0.3
        value: 0
        inSlope: 0
        outSlope: 0
        tangentMode: 10
      m_PreInfinity: 2
      m_PostInfinity: 2
      m_RotationOrder: 4
    attribute: m_AnchoredPosition.y
    path: Bottom_left/Chests/Red/Button (1)/Image
    classID: 224
    script: {fileID: 0}
  - curve:
      serializedVersion: 2
      m_Curve:
      - time: 0
        value: 0
        inSlope: 0
        outSlope: 0
        tangentMode: 10
      - time: 0.3
        value: 0
        inSlope: 0
        outSlope: 0
        tangentMode: 10
      m_PreInfinity: 2
      m_PostInfinity: 2
      m_RotationOrder: 4
    attribute: m_SizeDelta.y
    path: Bottom_left/Chests/Red/Button (1)/Image
    classID: 224
    script: {fileID: 0}
  - curve:
      serializedVersion: 2
      m_Curve:
      - time: 0
        value: 46.7
        inSlope: -1705.4999
        outSlope: -1705.4999
        tangentMode: 10
      - time: 0.06666667
        value: -66.99999
        inSlope: -799.3499
        outSlope: -799.3499
        tangentMode: 10
      - time: 0.15
        value: -58.09999
        inSlope: 106.80002
        outSlope: 106.80002
        tangentMode: 10
      m_PreInfinity: 2
      m_PostInfinity: 2
      m_RotationOrder: 4
    attribute: m_AnchoredPosition.y
    path: prefab_ui_currencies/HardCurrency
    classID: 224
    script: {fileID: 0}
  - curve:
      serializedVersion: 2
      m_Curve:
      - time: 0
        value: -20.131805
        inSlope: -3.0683897
        outSlope: -3.0683897
        tangentMode: 10
      - time: 0.06666667
        value: -20.336365
        inSlope: -2.5160065
        outSlope: -2.5160065
        tangentMode: 10
      - time: 0.15
        value: -20.5
        inSlope: -1.963623
        outSlope: -1.963623
        tangentMode: 10
      m_PreInfinity: 2
      m_PostInfinity: 2
      m_RotationOrder: 4
    attribute: m_AnchoredPosition.x
    path: prefab_ui_currencies/SoftCurrency
    classID: 224
    script: {fileID: 0}
  - curve:
      serializedVersion: 2
      m_Curve:
      - time: 0
        value: 46.69999
        inSlope: -1705.4995
        outSlope: -1705.4995
        tangentMode: 10
      - time: 0.06666667
        value: -66.999985
        inSlope: -799.34985
        outSlope: -799.34985
        tangentMode: 10
      - time: 0.15
        value: -58.1
        inSlope: 106.799835
        outSlope: 106.799835
        tangentMode: 10
      m_PreInfinity: 2
      m_PostInfinity: 2
      m_RotationOrder: 4
    attribute: m_AnchoredPosition.y
    path: prefab_ui_currencies/SoftCurrency
    classID: 224
    script: {fileID: 0}
  - curve:
      serializedVersion: 2
      m_Curve:
      - time: 0
        value: -138
        inSlope: 0
        outSlope: 0
        tangentMode: 10
      - time: 0.1
        value: -138
        inSlope: 0
        outSlope: 539.66675
        tangentMode: 5
      - time: 0.25
        value: 23.900002
        inSlope: -0.019959616
        outSlope: -0.019959616
        tangentMode: 0
      - time: 0.28333333
        value: 3
        inSlope: -627.00006
        outSlope: -627.00006
        tangentMode: 10
      m_PreInfinity: 2
      m_PostInfinity: 2
      m_RotationOrder: 4
    attribute: m_AnchoredPosition.x
    path: CityLevel/AchievementMenuButton
    classID: 224
    script: {fileID: 0}
  m_EulerEditorCurves: []
  m_HasGenericRootTransform: 0
  m_HasMotionFloatCurves: 0
  m_GenerateMotionCurves: 0
  m_Events: []
