%YAML 1.1
%TAG !u! tag:unity3d.com,2011:
--- !u!74 &7400000
AnimationClip:
  m_ObjectHideFlags: 0
  m_PrefabParentObject: {fileID: 0}
  m_PrefabInternal: {fileID: 0}
  m_Name: uianimation_ftue_arrow_bounce
  serializedVersion: 6
  m_Legacy: 1
  m_Compressed: 0
  m_UseHighQualityCurve: 1
  m_RotationCurves: []
  m_CompressedRotationCurves: []
  m_EulerCurves: []
  m_PositionCurves: []
  m_ScaleCurves:
  - curve:
      serializedVersion: 2
      m_Curve:
      - time: 0
        value: {x: 0.9, y: 0.9, z: 1}
        inSlope: {x: 0.39473686, y: 0.75, z: 0}
        outSlope: {x: 0.39473686, y: 0.75, z: 0}
        tangentMode: 0
      - time: 0.31666666
        value: {x: 1.025, y: 1.025, z: 1}
        inSlope: {x: 0.19736843, y: 0.39694455, z: 0}
        outSlope: {x: 0.19736843, y: 0.39694455, z: 0}
        tangentMode: 0
      - time: 0.5833333
        value: {x: 1.025, y: 1.0301204, z: 1}
        inSlope: {x: 0, y: -0.62865746, z: 0}
        outSlope: {x: 0, y: -0.003460031, z: 0}
        tangentMode: 0
      - time: 0.7
        value: {x: 1.025, y: 1.0301204, z: 1}
        inSlope: {x: -0.41666657, y: -0.62865746, z: 0}
        outSlope: {x: -0.41666657, y: -0.62865746, z: 0}
        tangentMode: 0
      - time: 0.85
        value: {x: 0.9, y: 0.9, z: 1}
        inSlope: {x: -0.83333313, y: -1.3012041, z: 0}
        outSlope: {x: -0.83333313, y: -1.3012041, z: 0}
        tangentMode: 0
      m_PreInfinity: 2
      m_PostInfinity: 2
      m_RotationOrder: 4
    path: 
  m_FloatCurves:
  - curve:
      serializedVersion: 2
      m_Curve:
      - time: 0
        value: 0
        inSlope: 130
        outSlope: -0.61637
        tangentMode: 1
      - time: 0.21666667
        value: 0.000005722046
        inSlope: 0
        outSlope: 0
        tangentMode: 1
      - time: 0.31666666
        value: 28.99997
        inSlope: 0
        outSlope: 0
        tangentMode: 1
      - time: 0.5833333
        value: 25
        inSlope: 0
        outSlope: 0
        tangentMode: 1
      - time: 0.7
        value: -0.00007247926
        inSlope: 0
        outSlope: 0
        tangentMode: 1
      - time: 0.85
        value: 0
        inSlope: 130
        outSlope: -0.61637
        tangentMode: 1
      m_PreInfinity: 2
      m_PostInfinity: 2
      m_RotationOrder: 4
    attribute: m_AnchoredPosition.x
    path: 
    classID: 224
    script: {fileID: 0}
  - curve:
      serializedVersion: 2
      m_Curve:
      - time: 0
        value: 0
        inSlope: 0.000017606071
        outSlope: 0.000017606071
        tangentMode: 10
      - time: 0.21666667
        value: 0.0000038146486
        inSlope: -0.0012309735
        outSlope: -0.0012309735
        tangentMode: 10
      - time: 0.31666666
        value: -0.00024414065
        inSlope: -0.0007820127
        outSlope: -0.0007820127
        tangentMode: 10
      - time: 0.5833333
        value: 3.638e-12
        inSlope: -0.0010984283
        outSlope: -0.0010984283
        tangentMode: 10
      - time: 0.7
        value: -0.0003631115
        inSlope: -0.00034582068
        outSlope: -0.00034582068
        tangentMode: 10
      - time: 0.85
        value: 0
        inSlope: 0.0024207428
        outSlope: 0.0024207428
        tangentMode: 10
      m_PreInfinity: 2
      m_PostInfinity: 2
      m_RotationOrder: 4
    attribute: m_AnchoredPosition.y
    path: 
    classID: 224
    script: {fileID: 0}
  - curve:
      serializedVersion: 2
      m_Curve:
      - time: 0
        value: 240
        inSlope: 31.578947
        outSlope: 31.578947
        tangentMode: 10
      - time: 0.31666666
        value: 250
        inSlope: 30.789474
        outSlope: 30.789474
        tangentMode: 10
      - time: 0.5833333
        value: 258
        inSlope: -62.142853
        outSlope: -62.142853
        tangentMode: 10
      - time: 0.7
        value: 240
        inSlope: -77.14285
        outSlope: -77.14285
        tangentMode: 10
      - time: 0.85
        value: 240
        inSlope: 0
        outSlope: 0
        tangentMode: 10
      m_PreInfinity: 2
      m_PostInfinity: 2
      m_RotationOrder: 4
    attribute: m_SizeDelta.x
    path: 
    classID: 224
    script: {fileID: 0}
  - curve:
      serializedVersion: 2
      m_Curve:
      - time: 0
        value: 162
        inSlope: -61.768414
        outSlope: -61.768414
        tangentMode: 10
      - time: 0.31666666
        value: 142.44
        inSlope: -32.21547
        outSlope: -32.21547
        tangentMode: 10
      - time: 0.5833333
        value: 141.73
        inSlope: -1.3312627
        outSlope: -1.3312627
        tangentMode: 10
      - time: 0.7
        value: 141.73
        inSlope: 67.566666
        outSlope: 67.566666
        tangentMode: 10
      - time: 0.85
        value: 162
        inSlope: 135.13333
        outSlope: 135.13333
        tangentMode: 10
      m_PreInfinity: 2
      m_PostInfinity: 2
      m_RotationOrder: 4
    attribute: m_SizeDelta.y
    path: 
    classID: 224
    script: {fileID: 0}
  m_PPtrCurves: []
  m_SampleRate: 60
  m_WrapMode: 2
  m_Bounds:
    m_Center: {x: 0, y: 0, z: 0}
    m_Extent: {x: 0, y: 0, z: 0}
  m_ClipBindingConstant:
    genericBindings: []
    pptrCurveMapping: []
  m_AnimationClipSettings:
    serializedVersion: 2
    m_AdditiveReferencePoseClip: {fileID: 0}
    m_AdditiveReferencePoseTime: 0
    m_StartTime: 0
    m_StopTime: 0.85
    m_OrientationOffsetY: 0
    m_Level: 0
    m_CycleOffset: 0
    m_HasAdditiveReferencePose: 0
    m_LoopTime: 1
    m_LoopBlend: 0
    m_LoopBlendOrientation: 0
    m_LoopBlendPositionY: 0
    m_LoopBlendPositionXZ: 0
    m_KeepOriginalOrientation: 0
    m_KeepOriginalPositionY: 1
    m_KeepOriginalPositionXZ: 0
    m_HeightFromFeet: 0
    m_Mirror: 0
  m_EditorCurves:
  - curve:
      serializedVersion: 2
      m_Curve:
      - time: 0
        value: 0
        inSlope: 130
        outSlope: -0.61637
        tangentMode: 1
      - time: 0.21666667
        value: 0.000005722046
        inSlope: 0
        outSlope: 0
        tangentMode: 1
      - time: 0.31666666
        value: 28.99997
        inSlope: 0
        outSlope: 0
        tangentMode: 1
      - time: 0.5833333
        value: 25
        inSlope: 0
        outSlope: 0
        tangentMode: 1
      - time: 0.7
        value: -0.00007247926
        inSlope: 0
        outSlope: 0
        tangentMode: 1
      - time: 0.85
        value: 0
        inSlope: 130
        outSlope: -0.61637
        tangentMode: 1
      m_PreInfinity: 2
      m_PostInfinity: 2
      m_RotationOrder: 4
    attribute: m_AnchoredPosition.x
    path: 
    classID: 224
    script: {fileID: 0}
  - curve:
      serializedVersion: 2
      m_Curve:
      - time: 0
        value: 0
        inSlope: 0.000017606071
        outSlope: 0.000017606071
        tangentMode: 10
      - time: 0.21666667
        value: 0.0000038146486
        inSlope: -0.0012309735
        outSlope: -0.0012309735
        tangentMode: 10
      - time: 0.31666666
        value: -0.00024414065
        inSlope: -0.0007820127
        outSlope: -0.0007820127
        tangentMode: 10
      - time: 0.5833333
        value: 3.638e-12
        inSlope: -0.0010984283
        outSlope: -0.0010984283
        tangentMode: 10
      - time: 0.7
        value: -0.0003631115
        inSlope: -0.00034582068
        outSlope: -0.00034582068
        tangentMode: 10
      - time: 0.85
        value: 0
        inSlope: 0.0024207428
        outSlope: 0.0024207428
        tangentMode: 10
      m_PreInfinity: 2
      m_PostInfinity: 2
      m_RotationOrder: 4
    attribute: m_AnchoredPosition.y
    path: 
    classID: 224
    script: {fileID: 0}
  - curve:
      serializedVersion: 2
      m_Curve:
      - time: 0
        value: 0.9
        inSlope: 0.39473686
        outSlope: 0.39473686
        tangentMode: 10
      - time: 0.31666666
        value: 1.025
        inSlope: 0.19736843
        outSlope: 0.19736843
        tangentMode: 10
      - time: 0.5833333
        value: 1.025
        inSlope: 0
        outSlope: 0
        tangentMode: 10
      - time: 0.7
        value: 1.025
        inSlope: -0.41666657
        outSlope: -0.41666657
        tangentMode: 10
      - time: 0.85
        value: 0.9
        inSlope: -0.83333313
        outSlope: -0.83333313
        tangentMode: 10
      m_PreInfinity: 2
      m_PostInfinity: 2
      m_RotationOrder: 4
    attribute: m_LocalScale.x
    path: 
    classID: 224
    script: {fileID: 0}
  - curve:
      serializedVersion: 2
      m_Curve:
      - time: 0
        value: 0.9
        inSlope: 0.75
        outSlope: 0.75
        tangentMode: 1
      - time: 0.31666666
        value: 1.025
        inSlope: 0.39694455
        outSlope: 0.39694455
        tangentMode: 1
      - time: 0.5833333
        value: 1.0301204
        inSlope: -0.62865746
        outSlope: -0.003460031
        tangentMode: 1
      - time: 0.7
        value: 1.0301204
        inSlope: -0.62865746
        outSlope: -0.62865746
        tangentMode: 1
      - time: 0.85
        value: 0.9
        inSlope: -1.3012041
        outSlope: -1.3012041
        tangentMode: 1
      m_PreInfinity: 2
      m_PostInfinity: 2
      m_RotationOrder: 4
    attribute: m_LocalScale.y
    path: 
    classID: 224
    script: {fileID: 0}
  - curve:
      serializedVersion: 2
      m_Curve:
      - time: 0
        value: 1
        inSlope: 0
        outSlope: 0
        tangentMode: 10
      - time: 0.31666666
        value: 1
        inSlope: 0
        outSlope: 0
        tangentMode: 10
      - time: 0.5833333
        value: 1
        inSlope: 0
        outSlope: 0
        tangentMode: 10
      - time: 0.7
        value: 1
        inSlope: 0
        outSlope: 0
        tangentMode: 10
      - time: 0.85
        value: 1
        inSlope: 0
        outSlope: 0
        tangentMode: 10
      m_PreInfinity: 2
      m_PostInfinity: 2
      m_RotationOrder: 4
    attribute: m_LocalScale.z
    path: 
    classID: 224
    script: {fileID: 0}
  - curve:
      serializedVersion: 2
      m_Curve:
      - time: 0
        value: 240
        inSlope: 31.578947
        outSlope: 31.578947
        tangentMode: 10
      - time: 0.31666666
        value: 250
        inSlope: 30.789474
        outSlope: 30.789474
        tangentMode: 10
      - time: 0.5833333
        value: 258
        inSlope: -62.142853
        outSlope: -62.142853
        tangentMode: 10
      - time: 0.7
        value: 240
        inSlope: -77.14285
        outSlope: -77.14285
        tangentMode: 10
      - time: 0.85
        value: 240
        inSlope: 0
        outSlope: 0
        tangentMode: 10
      m_PreInfinity: 2
      m_PostInfinity: 2
      m_RotationOrder: 4
    attribute: m_SizeDelta.x
    path: 
    classID: 224
    script: {fileID: 0}
  - curve:
      serializedVersion: 2
      m_Curve:
      - time: 0
        value: 162
        inSlope: -61.768414
        outSlope: -61.768414
        tangentMode: 10
      - time: 0.31666666
        value: 142.44
        inSlope: -32.21547
        outSlope: -32.21547
        tangentMode: 10
      - time: 0.5833333
        value: 141.73
        inSlope: -1.3312627
        outSlope: -1.3312627
        tangentMode: 10
      - time: 0.7
        value: 141.73
        inSlope: 67.566666
        outSlope: 67.566666
        tangentMode: 10
      - time: 0.85
        value: 162
        inSlope: 135.13333
        outSlope: 135.13333
        tangentMode: 10
      m_PreInfinity: 2
      m_PostInfinity: 2
      m_RotationOrder: 4
    attribute: m_SizeDelta.y
    path: 
    classID: 224
    script: {fileID: 0}
  m_EulerEditorCurves: []
  m_HasGenericRootTransform: 0
  m_HasMotionFloatCurves: 0
  m_GenerateMotionCurves: 0
  m_Events: []
