%YAML 1.1
%TAG !u! tag:unity3d.com,2011:
--- !u!74 &7400000
AnimationClip:
  m_ObjectHideFlags: 0
  m_PrefabParentObject: {fileID: 0}
  m_PrefabInternal: {fileID: 0}
  m_Name: uianimation_canvas_info_panel_in
  serializedVersion: 6
  m_Legacy: 1
  m_Compressed: 0
  m_UseHighQualityCurve: 1
  m_RotationCurves: []
  m_CompressedRotationCurves: []
  m_EulerCurves: []
  m_PositionCurves: []
  m_ScaleCurves:
  - curve:
      serializedVersion: 2
      m_Curve:
      - time: 0
        value: {x: 0, y: 0, z: 1}
        inSlope: {x: 4.285714, y: 4.285714, z: 0}
        outSlope: {x: 4.285714, y: 4.285714, z: 0}
        tangentMode: 0
      - time: 0.23333333
        value: {x: 1, y: 1, z: 1}
        inSlope: {x: 4.285714, y: 4.285714, z: 0}
        outSlope: {x: 4.285714, y: 4.285714, z: 0}
        tangentMode: 0
      m_PreInfinity: 2
      m_PostInfinity: 2
      m_RotationOrder: 4
    path: Backing
  - curve:
      serializedVersion: 2
      m_Curve:
      - time: 0.35
        value: {x: 0.5, y: 0.5, z: 1}
        inSlope: {x: 3.3333333, y: 3.3333333, z: 0}
        outSlope: {x: 3.3333333, y: 3.3333333, z: 0}
        tangentMode: 0
      - time: 0.5
        value: {x: 1, y: 1, z: 1}
        inSlope: {x: 1.6666666, y: 1.6666666, z: 0}
        outSlope: {x: 1.6666666, y: 1.6666666, z: 0}
        tangentMode: 0
      - time: 0.78333336
        value: {x: 1, y: 1, z: 1}
        inSlope: {x: 0, y: 0, z: 0}
        outSlope: {x: 0, y: 0, z: 0}
        tangentMode: 0
      m_PreInfinity: 2
      m_PostInfinity: 2
      m_RotationOrder: 4
    path: Content/prefab_ui_info_menu/shadow
  m_FloatCurves:
  - curve:
      serializedVersion: 2
      m_Curve:
      - time: 0.51666665
        value: 96.99296
        inSlope: -951.4283
        outSlope: -951.4283
        tangentMode: 1
      - time: 0.6333333
        value: -14.007038
        inSlope: 0.0812725
        outSlope: 0.0635532
        tangentMode: 1
      - time: 0.7
        value: -0.003823039
        inSlope: 0.16055088
        outSlope: 210.00002
        tangentMode: 1
      - time: 0.8666667
        value: 0.011305458
        inSlope: 0
        outSlope: 0
        tangentMode: 1
      m_PreInfinity: 2
      m_PostInfinity: 2
      m_RotationOrder: 4
    attribute: m_AnchoredPosition.y
    path: prefab_ui_currencies
    classID: 224
    script: {fileID: 0}
  - curve:
      serializedVersion: 2
      m_Curve:
      - time: 0.51666665
        value: 0
        inSlope: -0.00026157923
        outSlope: -0.00026157923
        tangentMode: 10
      - time: 0.6333333
        value: -0.000030517578
        inSlope: -0.00013078962
        outSlope: -0.00013078962
        tangentMode: 10
      - time: 0.7
        value: -0.000030517578
        inSlope: 0
        outSlope: 0
        tangentMode: 10
      - time: 0.8666667
        value: -0.000030517578
        inSlope: 0
        outSlope: 0
        tangentMode: 10
      m_PreInfinity: 2
      m_PostInfinity: 2
      m_RotationOrder: 4
    attribute: m_AnchoredPosition.x
    path: Content/prefab_ui_info_menu/Car_advert
    classID: 224
    script: {fileID: 0}
  - curve:
      serializedVersion: 2
      m_Curve:
      - time: 0.51666665
        value: -326
        inSlope: 2965.714
        outSlope: 2965.714
        tangentMode: 10
      - time: 0.6333333
        value: 20
        inSlope: 0.49477494
        outSlope: 1.0917106
        tangentMode: 1
      - time: 0.7
        value: 0
        inSlope: -150.00002
        outSlope: -150.00002
        tangentMode: 10
      - time: 0.8666667
        value: 0
        inSlope: 106.9347
        outSlope: 0
        tangentMode: 1
      m_PreInfinity: 2
      m_PostInfinity: 2
      m_RotationOrder: 4
    attribute: m_AnchoredPosition.y
    path: Content/prefab_ui_info_menu/Car_advert
    classID: 224
    script: {fileID: 0}
  - curve:
      serializedVersion: 2
      m_Curve:
      - time: 0.73333335
        value: 1
        inSlope: Infinity
        outSlope: Infinity
        tangentMode: 31
      m_PreInfinity: 2
      m_PostInfinity: 2
      m_RotationOrder: 4
    attribute: m_IsActive
    path: Content/prefab_ui_info_menu/shadow
    classID: 1
    script: {fileID: 0}
  - curve:
      serializedVersion: 2
      m_Curve:
      - time: 0.11666667
        value: 562
        inSlope: -4248.0005
        outSlope: -4248.0005
        tangentMode: 10
      - time: 0.28333333
        value: -146
        inSlope: -1374.0002
        outSlope: -1374.0002
        tangentMode: 10
      - time: 0.43333334
        value: 79
        inSlope: 157.49994
        outSlope: 157.49994
        tangentMode: 10
      - time: 0.5
        value: 0
        inSlope: -592.50006
        outSlope: -592.50006
        tangentMode: 10
      - time: 0.78333336
        value: 0
        inSlope: 0
        outSlope: 0
        tangentMode: 10
      - time: 1.25
        value: 0
        inSlope: 0
        outSlope: 0
        tangentMode: 10
      m_PreInfinity: 2
      m_PostInfinity: 2
      m_RotationOrder: 4
    attribute: m_AnchoredPosition.y
    path: Content/prefab_ui_info_menu/shadow
    classID: 224
    script: {fileID: 0}
  - curve:
      serializedVersion: 2
      m_Curve:
      - time: 0.11666667
        value: -14
        inSlope: 85.99986
        outSlope: 85.99986
        tangentMode: 10
      - time: 0.28333333
        value: 0.33331
        inSlope: 40.777843
        outSlope: 40.777843
        tangentMode: 10
      - time: 0.43333334
        value: -0.33331597
        inSlope: -2.2220864
        outSlope: -2.2220864
        tangentMode: 10
      - time: 1.25
        value: -0.33331597
        inSlope: 0
        outSlope: 0
        tangentMode: 10
      m_PreInfinity: 2
      m_PostInfinity: 2
      m_RotationOrder: 4
    attribute: m_AnchoredPosition.x
    path: Content/prefab_ui_info_menu/shadow
    classID: 224
    script: {fileID: 0}
  m_PPtrCurves: []
  m_SampleRate: 60
  m_WrapMode: 1
  m_Bounds:
    m_Center: {x: 0, y: 0, z: 0}
    m_Extent: {x: 0, y: 0, z: 0}
  m_ClipBindingConstant:
    genericBindings: []
    pptrCurveMapping: []
  m_AnimationClipSettings:
    serializedVersion: 2
    m_AdditiveReferencePoseClip: {fileID: 0}
    m_AdditiveReferencePoseTime: 0
    m_StartTime: 0
    m_StopTime: 1.25
    m_OrientationOffsetY: 0
    m_Level: 0
    m_CycleOffset: 0
    m_HasAdditiveReferencePose: 0
    m_LoopTime: 1
    m_LoopBlend: 0
    m_LoopBlendOrientation: 0
    m_LoopBlendPositionY: 0
    m_LoopBlendPositionXZ: 0
    m_KeepOriginalOrientation: 0
    m_KeepOriginalPositionY: 1
    m_KeepOriginalPositionXZ: 0
    m_HeightFromFeet: 0
    m_Mirror: 0
  m_EditorCurves:
  - curve:
      serializedVersion: 2
      m_Curve:
      - time: 0.51666665
        value: 96.99296
        inSlope: -951.4283
        outSlope: -951.4283
        tangentMode: 1
      - time: 0.6333333
        value: -14.007038
        inSlope: 0.0812725
        outSlope: 0.0635532
        tangentMode: 1
      - time: 0.7
        value: -0.003823039
        inSlope: 0.16055088
        outSlope: 210.00002
        tangentMode: 1
      - time: 0.8666667
        value: 0.011305458
        inSlope: 0
        outSlope: 0
        tangentMode: 1
      m_PreInfinity: 2
      m_PostInfinity: 2
      m_RotationOrder: 4
    attribute: m_AnchoredPosition.y
    path: prefab_ui_currencies
    classID: 224
    script: {fileID: 0}
  - curve:
      serializedVersion: 2
      m_Curve:
      - time: 0
        value: 0
        inSlope: 4.285714
        outSlope: 4.285714
        tangentMode: 10
      - time: 0.23333333
        value: 1
        inSlope: 4.285714
        outSlope: 4.285714
        tangentMode: 10
      m_PreInfinity: 2
      m_PostInfinity: 2
      m_RotationOrder: 4
    attribute: m_LocalScale.x
    path: Backing
    classID: 224
    script: {fileID: 0}
  - curve:
      serializedVersion: 2
      m_Curve:
      - time: 0
        value: 0
        inSlope: 4.285714
        outSlope: 4.285714
        tangentMode: 10
      - time: 0.23333333
        value: 1
        inSlope: 4.285714
        outSlope: 4.285714
        tangentMode: 10
      m_PreInfinity: 2
      m_PostInfinity: 2
      m_RotationOrder: 4
    attribute: m_LocalScale.y
    path: Backing
    classID: 224
    script: {fileID: 0}
  - curve:
      serializedVersion: 2
      m_Curve:
      - time: 0
        value: 1
        inSlope: 0
        outSlope: 0
        tangentMode: 10
      - time: 0.23333333
        value: 1
        inSlope: 0
        outSlope: 0
        tangentMode: 10
      m_PreInfinity: 2
      m_PostInfinity: 2
      m_RotationOrder: 4
    attribute: m_LocalScale.z
    path: Backing
    classID: 224
    script: {fileID: 0}
  - curve:
      serializedVersion: 2
      m_Curve:
      - time: 0.51666665
        value: 0
        inSlope: -0.00026157923
        outSlope: -0.00026157923
        tangentMode: 10
      - time: 0.6333333
        value: -0.000030517578
        inSlope: -0.00013078962
        outSlope: -0.00013078962
        tangentMode: 10
      - time: 0.7
        value: -0.000030517578
        inSlope: 0
        outSlope: 0
        tangentMode: 10
      - time: 0.8666667
        value: -0.000030517578
        inSlope: 0
        outSlope: 0
        tangentMode: 10
      m_PreInfinity: 2
      m_PostInfinity: 2
      m_RotationOrder: 4
    attribute: m_AnchoredPosition.x
    path: Content/prefab_ui_info_menu/Car_advert
    classID: 224
    script: {fileID: 0}
  - curve:
      serializedVersion: 2
      m_Curve:
      - time: 0.51666665
        value: -326
        inSlope: 2965.714
        outSlope: 2965.714
        tangentMode: 10
      - time: 0.6333333
        value: 20
        inSlope: 0.49477494
        outSlope: 1.0917106
        tangentMode: 1
      - time: 0.7
        value: 0
        inSlope: -150.00002
        outSlope: -150.00002
        tangentMode: 10
      - time: 0.8666667
        value: 0
        inSlope: 106.9347
        outSlope: 0
        tangentMode: 1
      m_PreInfinity: 2
      m_PostInfinity: 2
      m_RotationOrder: 4
    attribute: m_AnchoredPosition.y
    path: Content/prefab_ui_info_menu/Car_advert
    classID: 224
    script: {fileID: 0}
  - curve:
      serializedVersion: 2
      m_Curve:
      - time: 0.73333335
        value: 1
        inSlope: Infinity
        outSlope: Infinity
        tangentMode: 31
      m_PreInfinity: 2
      m_PostInfinity: 2
      m_RotationOrder: 4
    attribute: m_IsActive
    path: Content/prefab_ui_info_menu/shadow
    classID: 1
    script: {fileID: 0}
  - curve:
      serializedVersion: 2
      m_Curve:
      - time: 0.11666667
        value: 562
        inSlope: -4248.0005
        outSlope: -4248.0005
        tangentMode: 10
      - time: 0.28333333
        value: -146
        inSlope: -1374.0002
        outSlope: -1374.0002
        tangentMode: 10
      - time: 0.43333334
        value: 79
        inSlope: 157.49994
        outSlope: 157.49994
        tangentMode: 10
      - time: 0.5
        value: 0
        inSlope: -592.50006
        outSlope: -592.50006
        tangentMode: 10
      - time: 0.78333336
        value: 0
        inSlope: 0
        outSlope: 0
        tangentMode: 10
      - time: 1.25
        value: 0
        inSlope: 0
        outSlope: 0
        tangentMode: 10
      m_PreInfinity: 2
      m_PostInfinity: 2
      m_RotationOrder: 4
    attribute: m_AnchoredPosition.y
    path: Content/prefab_ui_info_menu/shadow
    classID: 224
    script: {fileID: 0}
  - curve:
      serializedVersion: 2
      m_Curve:
      - time: 0.11666667
        value: -14
        inSlope: 85.99986
        outSlope: 85.99986
        tangentMode: 10
      - time: 0.28333333
        value: 0.33331
        inSlope: 40.777843
        outSlope: 40.777843
        tangentMode: 10
      - time: 0.43333334
        value: -0.33331597
        inSlope: -2.2220864
        outSlope: -2.2220864
        tangentMode: 10
      - time: 1.25
        value: -0.33331597
        inSlope: 0
        outSlope: 0
        tangentMode: 10
      m_PreInfinity: 2
      m_PostInfinity: 2
      m_RotationOrder: 4
    attribute: m_AnchoredPosition.x
    path: Content/prefab_ui_info_menu/shadow
    classID: 224
    script: {fileID: 0}
  - curve:
      serializedVersion: 2
      m_Curve:
      - time: 0.35
        value: 0.5
        inSlope: 3.3333333
        outSlope: 3.3333333
        tangentMode: 10
      - time: 0.5
        value: 1
        inSlope: 1.6666666
        outSlope: 1.6666666
        tangentMode: 10
      - time: 0.78333336
        value: 1
        inSlope: 0
        outSlope: 0
        tangentMode: 10
      m_PreInfinity: 2
      m_PostInfinity: 2
      m_RotationOrder: 4
    attribute: m_LocalScale.x
    path: Content/prefab_ui_info_menu/shadow
    classID: 224
    script: {fileID: 0}
  - curve:
      serializedVersion: 2
      m_Curve:
      - time: 0.35
        value: 0.5
        inSlope: 3.3333333
        outSlope: 3.3333333
        tangentMode: 10
      - time: 0.5
        value: 1
        inSlope: 1.6666666
        outSlope: 1.6666666
        tangentMode: 10
      - time: 0.78333336
        value: 1
        inSlope: 0
        outSlope: 0
        tangentMode: 10
      m_PreInfinity: 2
      m_PostInfinity: 2
      m_RotationOrder: 4
    attribute: m_LocalScale.y
    path: Content/prefab_ui_info_menu/shadow
    classID: 224
    script: {fileID: 0}
  - curve:
      serializedVersion: 2
      m_Curve:
      - time: 0.35
        value: 1
        inSlope: 0
        outSlope: 0
        tangentMode: 10
      - time: 0.5
        value: 1
        inSlope: 0
        outSlope: 0
        tangentMode: 10
      - time: 0.78333336
        value: 1
        inSlope: 0
        outSlope: 0
        tangentMode: 10
      m_PreInfinity: 2
      m_PostInfinity: 2
      m_RotationOrder: 4
    attribute: m_LocalScale.z
    path: Content/prefab_ui_info_menu/shadow
    classID: 224
    script: {fileID: 0}
  m_EulerEditorCurves: []
  m_HasGenericRootTransform: 0
  m_HasMotionFloatCurves: 0
  m_GenerateMotionCurves: 0
  m_Events: []
