%YAML 1.1
%TAG !u! tag:unity3d.com,2011:
--- !u!74 &7400000
AnimationClip:
  m_ObjectHideFlags: 0
  m_PrefabParentObject: {fileID: 0}
  m_PrefabInternal: {fileID: 0}
  m_Name: uianimation_button_pressed
  serializedVersion: 6
  m_Legacy: 0
  m_Compressed: 0
  m_UseHighQualityCurve: 1
  m_RotationCurves: []
  m_CompressedRotationCurves: []
  m_EulerCurves: []
  m_PositionCurves: []
  m_ScaleCurves:
  - curve:
      serializedVersion: 2
      m_Curve:
      - time: 0
        value: {x: 1, y: 1, z: 1}
        inSlope: {x: 1.8562245, y: 1.8562245, z: 1.8562245}
        outSlope: {x: 1.8562245, y: 1.8562245, z: 1.8562245}
        tangentMode: 0
      - time: 0.05
        value: {x: 1.0928112, y: 1.0928112, z: 1.0928112}
        inSlope: {x: 0.8462632, y: 0.8462632, z: 0.8462632}
        outSlope: {x: 0.8462632, y: 0.8462632, z: 0.8462632}
        tangentMode: 0
      - time: 0.1
        value: {x: 1.0846263, y: 1.0846263, z: 1.0846263}
        inSlope: {x: -0.1636982, y: -0.1636982, z: -0.1636982}
        outSlope: {x: -0.1636982, y: -0.1636982, z: -0.1636982}
        tangentMode: 0
      m_PreInfinity: 2
      m_PostInfinity: 2
      m_RotationOrder: 4
    path: 
  m_FloatCurves: []
  m_PPtrCurves: []
  m_SampleRate: 60
  m_WrapMode: 0
  m_Bounds:
    m_Center: {x: 0, y: 0, z: 0}
    m_Extent: {x: 0, y: 0, z: 0}
  m_ClipBindingConstant:
    genericBindings:
    - path: 0
      attribute: 3
      script: {fileID: 0}
      classID: 4
      customType: 0
      isPPtrCurve: 0
    pptrCurveMapping: []
  m_AnimationClipSettings:
    serializedVersion: 2
    m_AdditiveReferencePoseClip: {fileID: 0}
    m_AdditiveReferencePoseTime: 0
    m_StartTime: 0
    m_StopTime: 0.1
    m_OrientationOffsetY: 0
    m_Level: 0
    m_CycleOffset: 0
    m_HasAdditiveReferencePose: 0
    m_LoopTime: 1
    m_LoopBlend: 0
    m_LoopBlendOrientation: 0
    m_LoopBlendPositionY: 0
    m_LoopBlendPositionXZ: 0
    m_KeepOriginalOrientation: 0
    m_KeepOriginalPositionY: 1
    m_KeepOriginalPositionXZ: 0
    m_HeightFromFeet: 0
    m_Mirror: 0
  m_EditorCurves:
  - curve:
      serializedVersion: 2
      m_Curve:
      - time: 0
        value: 1
        inSlope: 1.8562245
        outSlope: 1.8562245
        tangentMode: 10
      - time: 0.05
        value: 1.0928112
        inSlope: 0.8462632
        outSlope: 0.8462632
        tangentMode: 10
      - time: 0.1
        value: 1.0846263
        inSlope: -0.1636982
        outSlope: -0.1636982
        tangentMode: 10
      m_PreInfinity: 2
      m_PostInfinity: 2
      m_RotationOrder: 4
    attribute: m_LocalScale.x
    path: 
    classID: 224
    script: {fileID: 0}
  - curve:
      serializedVersion: 2
      m_Curve:
      - time: 0
        value: 1
        inSlope: 1.8562245
        outSlope: 1.8562245
        tangentMode: 10
      - time: 0.05
        value: 1.0928112
        inSlope: 0.8462632
        outSlope: 0.8462632
        tangentMode: 10
      - time: 0.1
        value: 1.0846263
        inSlope: -0.1636982
        outSlope: -0.1636982
        tangentMode: 10
      m_PreInfinity: 2
      m_PostInfinity: 2
      m_RotationOrder: 4
    attribute: m_LocalScale.y
    path: 
    classID: 224
    script: {fileID: 0}
  - curve:
      serializedVersion: 2
      m_Curve:
      - time: 0
        value: 1
        inSlope: 1.8562245
        outSlope: 1.8562245
        tangentMode: 10
      - time: 0.05
        value: 1.0928112
        inSlope: 0.8462632
        outSlope: 0.8462632
        tangentMode: 10
      - time: 0.1
        value: 1.0846263
        inSlope: -0.1636982
        outSlope: -0.1636982
        tangentMode: 10
      m_PreInfinity: 2
      m_PostInfinity: 2
      m_RotationOrder: 4
    attribute: m_LocalScale.z
    path: 
    classID: 224
    script: {fileID: 0}
  m_EulerEditorCurves: []
  m_HasGenericRootTransform: 0
  m_HasMotionFloatCurves: 0
  m_GenerateMotionCurves: 0
  m_Events: []
