%YAML 1.1
%TAG !u! tag:unity3d.com,2011:
--- !u!74 &7400000
AnimationClip:
  m_ObjectHideFlags: 0
  m_PrefabParentObject: {fileID: 0}
  m_PrefabInternal: {fileID: 0}
  m_Name: uianimation_rackup_chest_3D_animate_in
  serializedVersion: 6
  m_Legacy: 1
  m_Compressed: 0
  m_UseHighQualityCurve: 1
  m_RotationCurves:
  - curve:
      serializedVersion: 2
      m_Curve:
      - time: 0
        value: {x: -0, y: -0, z: -0, w: -1}
        inSlope: {x: 0, y: -11.087635, z: 0, w: 1.0333622}
        outSlope: {x: 0, y: -11.087635, z: 0, w: 1.0333622}
        tangentMode: 0
      - time: 0.016666668
        value: {x: -0, y: -0.18479392, z: -0, w: -0.9827773}
        inSlope: {x: 0, y: -10.693028, z: 0, w: 1.9703882}
        outSlope: {x: 0, y: -10.693028, z: 0, w: 1.9703882}
        tangentMode: 0
      - time: 0.033333335
        value: {x: -0, y: -0.3564343, z: -0, w: -0.9343204}
        inSlope: {x: 0, y: -9.774199, z: 0, w: 3.688777}
        outSlope: {x: 0, y: -9.774199, z: 0, w: 3.688777}
        tangentMode: 0
      - time: 0.050000004
        value: {x: -0, y: -0.51060057, z: -0, w: -0.85981804}
        inSlope: {x: 0, y: -8.640124, z: 0, w: 5.089926}
        outSlope: {x: 0, y: -8.640124, z: 0, w: 5.089926}
        tangentMode: 0
      - time: 0.06666667
        value: {x: -0, y: -0.64443845, z: -0, w: -0.7646562}
        inSlope: {x: 0, y: -7.3739243, z: 0, w: 6.171191}
        outSlope: {x: 0, y: -7.3739243, z: 0, w: 6.171191}
        tangentMode: 0
      - time: 0.083333336
        value: {x: -0, y: -0.756398, z: -0, w: -0.6541117}
        inSlope: {x: 0, y: -6.047947, z: 0, w: 6.945944}
        outSlope: {x: 0, y: -6.047947, z: 0, w: 6.945944}
        tangentMode: 0
      - time: 0.1
        value: {x: -0, y: -0.8460367, z: -0, w: -0.53312474}
        inSlope: {x: 0, y: -4.722333, z: 0, w: 7.4390345}
        outSlope: {x: 0, y: -4.722333, z: 0, w: 7.4390345}
        tangentMode: 0
      - time: 0.11666667
        value: {x: -0, y: -0.9138091, z: -0, w: -0.40614387}
        inSlope: {x: 0, y: -3.4446998, z: 0, w: 7.6827116}
        outSlope: {x: 0, y: -3.4446998, z: 0, w: 7.6827116}
        tangentMode: 0
      - time: 0.13333334
        value: {x: -0, y: -0.96086, z: -0, w: -0.2770343}
        inSlope: {x: 0, y: -2.250675, z: 0, w: 7.7132063}
        outSlope: {x: 0, y: -2.250675, z: 0, w: 7.7132063}
        tangentMode: 0
      - time: 0.15
        value: {x: -0, y: -0.98883164, z: -0, w: -0.14903694}
        inSlope: {x: 0, y: -1.1649961, z: 0, w: 7.567985}
        outSlope: {x: 0, y: -1.1649961, z: 0, w: 7.567985}
        tangentMode: 0
      - time: 0.16666667
        value: {x: -0, y: -0.9996932, z: -0, w: -0.02476816}
        inSlope: {x: 0, y: -0.20292524, z: 0, w: 7.283601}
        outSlope: {x: 0, y: -0.20292524, z: 0, w: 7.283601}
        tangentMode: 0
      - time: 0.18333334
        value: {x: -0, y: -0.9955958, z: -0, w: 0.09374974}
        inSlope: {x: 0, y: 0.6281859, z: 0, w: 6.894236}
        outSlope: {x: 0, y: 0.6281859, z: 0, w: 6.894236}
        tangentMode: 0
      - time: 0.2
        value: {x: -0, y: -0.9787537, z: -0, w: 0.2050397}
        inSlope: {x: 0, y: 1.3273199, z: 0, w: 6.43071}
        outSlope: {x: 0, y: 1.3273199, z: 0, w: 6.43071}
        tangentMode: 0
      - time: 0.21666667
        value: {x: -0, y: -0.9513518, z: -0, w: 0.30810672}
        inSlope: {x: 0, y: 1.8983121, z: 0, w: 5.919945}
        outSlope: {x: 0, y: 1.8983121, z: 0, w: 5.919945}
        tangentMode: 0
      - time: 0.23333333
        value: {x: -0, y: -0.9154766, z: -0, w: 0.40237117}
        inSlope: {x: 0, y: 2.3485138, z: 0, w: 5.3847504}
        outSlope: {x: 0, y: 2.3485138, z: 0, w: 5.3847504}
        tangentMode: 0
      - time: 0.25
        value: {x: -0, y: -0.87306803, z: -0, w: 0.4875984}
        inSlope: {x: 0, y: 2.687644, z: 0, w: 4.843869}
        outSlope: {x: 0, y: 2.687644, z: 0, w: 4.843869}
        tangentMode: 0
      - time: 0.26666668
        value: {x: -0, y: -0.82588845, z: -0, w: 0.56383353}
        inSlope: {x: 0, y: 2.9268274, z: 0, w: 4.3122115}
        outSlope: {x: 0, y: 2.9268274, z: 0, w: 4.3122115}
        tangentMode: 0
      - time: 0.28333336
        value: {x: -0, y: -0.77550703, z: -0, w: 0.6313389}
        inSlope: {x: 0, y: 3.0778232, z: 0, w: 3.8011894}
        outSlope: {x: 0, y: 3.0778232, z: 0, w: 3.8011894}
        tangentMode: 0
      - time: 0.30000004
        value: {x: -0, y: -0.72329426, z: -0, w: 0.69053996}
        inSlope: {x: 0, y: 3.1524425, z: 0, w: 3.3191361}
        outSlope: {x: 0, y: 3.1524425, z: 0, w: 3.3191361}
        tangentMode: 0
      - time: 0.31666672
        value: {x: -0, y: -0.67042553, z: -0, w: 0.74197686}
        inSlope: {x: 0, y: 3.1620803, z: 0, w: 2.8716993}
        outSlope: {x: 0, y: 3.1620803, z: 0, w: 2.8716993}
        tangentMode: 0
      - time: 0.3333334
        value: {x: -0, y: -0.6178915, z: -0, w: 0.78626335}
        inSlope: {x: 0, y: 3.1174269, z: 0, w: 2.4623122}
        outSlope: {x: 0, y: 3.1174269, z: 0, w: 2.4623122}
        tangentMode: 0
      - time: 0.35000008
        value: {x: -0, y: -0.5665112, z: -0, w: 0.824054}
        inSlope: {x: 0, y: 3.0283098, z: 0, w: 2.0926058}
        outSlope: {x: 0, y: 3.0283098, z: 0, w: 2.0926058}
        tangentMode: 0
      - time: 0.36666676
        value: {x: -0, y: -0.51694775, z: -0, w: 0.85601693}
        inSlope: {x: 0, y: 2.9035335, z: 0, w: 1.7627356}
        outSlope: {x: 0, y: 2.9035335, z: 0, w: 1.7627356}
        tangentMode: 0
      - time: 0.38333344
        value: {x: -0, y: -0.46972668, z: -0, w: 0.8828119}
        inSlope: {x: 0, y: 2.750797, z: 0, w: 1.4717054}
        outSlope: {x: 0, y: 2.750797, z: 0, w: 1.4717054}
        tangentMode: 0
      - time: 0.40000013
        value: {x: -0, y: -0.42525443, z: -0, w: 0.9050738}
        inSlope: {x: 0, y: 2.5768542, z: 0, w: 1.2177362}
        outSlope: {x: 0, y: 2.5768542, z: 0, w: 1.2177362}
        tangentMode: 0
      - time: 0.4166668
        value: {x: -0, y: -0.38383147, z: -0, w: 0.92340314}
        inSlope: {x: 0, y: 2.3874526, z: 0, w: 0.99844074}
        outSlope: {x: 0, y: 2.3874526, z: 0, w: 0.99844074}
        tangentMode: 0
      - time: 0.4333335
        value: {x: -0, y: -0.3456726, z: -0, w: 0.9383552}
        inSlope: {x: 0, y: 2.1873565, z: 0, w: 0.810992}
        outSlope: {x: 0, y: 2.1873565, z: 0, w: 0.810992}
        tangentMode: 0
      - time: 0.45000017
        value: {x: -0, y: -0.31091952, z: -0, w: 0.95043623}
        inSlope: {x: 0, y: 1.9805808, z: 0, w: 0.6523753}
        outSlope: {x: 0, y: 1.9805808, z: 0, w: 0.6523753}
        tangentMode: 0
      - time: 0.46666685
        value: {x: -0, y: -0.2796532, z: -0, w: 0.96010107}
        inSlope: {x: 0, y: 1.770396, z: 0, w: 0.5194612}
        outSlope: {x: 0, y: 1.770396, z: 0, w: 0.5194612}
        tangentMode: 0
      - time: 0.48333353
        value: {x: -0, y: -0.25190628, z: -0, w: 0.9677516}
        inSlope: {x: 0, y: 1.5593956, z: 0, w: 0.40909407}
        outSlope: {x: 0, y: 1.5593956, z: 0, w: 0.40909407}
        tangentMode: 0
      - time: 0.5000002
        value: {x: -0, y: -0.22767334, z: -0, w: 0.97373754}
        inSlope: {x: 0, y: 1.3496697, z: 0, w: 0.31820506}
        outSlope: {x: 0, y: 1.3496697, z: 0, w: 0.31820506}
        tangentMode: 0
      - time: 0.5166668
        value: {x: -0, y: -0.20691733, z: -0, w: 0.97835845}
        inSlope: {x: 0, y: 1.1428595, z: 0, w: 0.24384344}
        outSlope: {x: 0, y: 1.1428595, z: 0, w: 0.24384344}
        tangentMode: 0
      - time: 0.5333335
        value: {x: -0, y: -0.18957806, z: -0, w: 0.98186564}
        inSlope: {x: 0, y: 0.94017416, z: 0, w: 0.18321115}
        outSlope: {x: 0, y: 0.94017416, z: 0, w: 0.18321115}
        tangentMode: 0
      - time: 0.55000013
        value: {x: -0, y: -0.17557822, z: -0, w: 0.9844655}
        inSlope: {x: 0, y: 0.74258995, z: 0, w: 0.13371539}
        outSlope: {x: 0, y: 0.74258995, z: 0, w: 0.13371539}
        tangentMode: 0
      - time: 0.5666668
        value: {x: -0, y: -0.16482508, z: -0, w: 0.9863228}
        inSlope: {x: 0, y: 0.550819, z: 0, w: 0.092954725}
        outSlope: {x: 0, y: 0.550819, z: 0, w: 0.092954725}
        tangentMode: 0
      - time: 0.58333343
        value: {x: -0, y: -0.1572176, z: -0, w: 0.98756397}
        inSlope: {x: 0, y: 0.3653722, z: 0, w: 0.058744013}
        outSlope: {x: 0, y: 0.3653722, z: 0, w: 0.058744013}
        tangentMode: 0
      - time: 0.6000001
        value: {x: -0, y: -0.15264602, z: -0, w: 0.98828095}
        inSlope: {x: 0, y: 0.1866493, z: 0, w: 0.029112725}
        outSlope: {x: 0, y: 0.1866493, z: 0, w: 0.029112725}
        tangentMode: 0
      - time: 0.61666673
        value: {x: -0, y: -0.15099597, z: -0, w: 0.9885344}
        inSlope: {x: 0, y: 0.049501557, z: 0, w: 0.007603176}
        outSlope: {x: 0, y: 0.049501557, z: 0, w: 0.007603176}
        tangentMode: 0
      - time: 0.6333334
        value: {x: -0, y: -0.15099597, z: -0, w: 0.9885344}
        inSlope: {x: 0, y: 0, z: 0, w: 0}
        outSlope: {x: 0, y: 0, z: 0, w: 0}
        tangentMode: 0
      - time: 0.65000004
        value: {x: -0, y: -0.15099597, z: -0, w: 0.9885344}
        inSlope: {x: 0, y: 0, z: 0, w: 0}
        outSlope: {x: 0, y: 0, z: 0, w: 0}
        tangentMode: 0
      - time: 0.6666667
        value: {x: -0, y: -0.15099597, z: -0, w: 0.9885344}
        inSlope: {x: 0, y: 0, z: 0, w: 0}
        outSlope: {x: 0, y: 0, z: 0, w: 0}
        tangentMode: 0
      - time: 0.68333334
        value: {x: -0, y: -0.15099597, z: -0, w: 0.9885344}
        inSlope: {x: 0, y: 0, z: 0, w: 0}
        outSlope: {x: 0, y: 0, z: 0, w: 0}
        tangentMode: 0
      - time: 0.7
        value: {x: -0, y: -0.15099597, z: -0, w: 0.9885344}
        inSlope: {x: 0, y: 0, z: 0, w: 0}
        outSlope: {x: 0, y: 0, z: 0, w: 0}
        tangentMode: 0
      - time: 0.71666664
        value: {x: -0, y: -0.15099597, z: -0, w: 0.9885344}
        inSlope: {x: 0, y: 0, z: 0, w: 0}
        outSlope: {x: 0, y: 0, z: 0, w: 0}
        tangentMode: 0
      - time: 0.7333333
        value: {x: -0, y: -0.15099597, z: -0, w: 0.9885344}
        inSlope: {x: 0, y: 0, z: 0, w: 0}
        outSlope: {x: 0, y: 0, z: 0, w: 0}
        tangentMode: 0
      - time: 0.74999994
        value: {x: -0, y: -0.15099597, z: -0, w: 0.9885344}
        inSlope: {x: 0, y: 0, z: 0, w: 0}
        outSlope: {x: 0, y: 0, z: 0, w: 0}
        tangentMode: 0
      - time: 0.7666666
        value: {x: -0, y: -0.15099597, z: -0, w: 0.9885344}
        inSlope: {x: 0, y: 0, z: 0, w: 0}
        outSlope: {x: 0, y: 0, z: 0, w: 0}
        tangentMode: 0
      - time: 0.78333324
        value: {x: -0, y: -0.15099597, z: -0, w: 0.9885344}
        inSlope: {x: 0, y: 0, z: 0, w: 0}
        outSlope: {x: 0, y: 0, z: 0, w: 0}
        tangentMode: 0
      - time: 0.7999999
        value: {x: -0, y: -0.15099597, z: -0, w: 0.9885344}
        inSlope: {x: 0, y: 0, z: 0, w: 0}
        outSlope: {x: 0, y: 0, z: 0, w: 0}
        tangentMode: 0
      - time: 0.81666654
        value: {x: -0, y: -0.15099597, z: -0, w: 0.9885344}
        inSlope: {x: 0, y: 0, z: 0, w: 0}
        outSlope: {x: 0, y: 0, z: 0, w: 0}
        tangentMode: 0
      - time: 0.8333332
        value: {x: -0, y: -0.15099597, z: -0, w: 0.9885344}
        inSlope: {x: 0, y: 0, z: 0, w: 0}
        outSlope: {x: 0, y: 0, z: 0, w: 0}
        tangentMode: 0
      - time: 0.84999985
        value: {x: -0, y: -0.15099597, z: -0, w: 0.9885344}
        inSlope: {x: 0, y: 0, z: 0, w: 0}
        outSlope: {x: 0, y: 0, z: 0, w: 0}
        tangentMode: 0
      - time: 0.8666665
        value: {x: -0, y: -0.15099597, z: -0, w: 0.9885344}
        inSlope: {x: 0, y: 0, z: 0, w: 0}
        outSlope: {x: 0, y: 0, z: 0, w: 0}
        tangentMode: 0
      - time: 0.88333315
        value: {x: -0, y: -0.15099597, z: -0, w: 0.9885344}
        inSlope: {x: 0, y: 0, z: 0, w: 0}
        outSlope: {x: 0, y: 0, z: 0, w: 0}
        tangentMode: 0
      - time: 0.8999998
        value: {x: -0, y: -0.15099597, z: -0, w: 0.9885344}
        inSlope: {x: 0, y: 0, z: 0, w: 0}
        outSlope: {x: 0, y: 0, z: 0, w: 0}
        tangentMode: 0
      - time: 0.91666645
        value: {x: -0, y: -0.15099597, z: -0, w: 0.9885344}
        inSlope: {x: 0, y: 0, z: 0, w: 0}
        outSlope: {x: 0, y: 0, z: 0, w: 0}
        tangentMode: 0
      - time: 0.9333331
        value: {x: -0, y: -0.15099597, z: -0, w: 0.9885344}
        inSlope: {x: 0, y: 0, z: 0, w: 0}
        outSlope: {x: 0, y: 0, z: 0, w: 0}
        tangentMode: 0
      - time: 0.94999975
        value: {x: -0, y: -0.15099597, z: -0, w: 0.9885344}
        inSlope: {x: 0, y: 0, z: 0, w: 0}
        outSlope: {x: 0, y: 0, z: 0, w: 0}
        tangentMode: 0
      - time: 0.9666664
        value: {x: -0, y: -0.15099597, z: -0, w: 0.9885344}
        inSlope: {x: 0, y: 0, z: 0, w: 0}
        outSlope: {x: 0, y: 0, z: 0, w: 0}
        tangentMode: 0
      - time: 0.98333305
        value: {x: -0, y: -0.15099597, z: -0, w: 0.9885344}
        inSlope: {x: 0, y: 0, z: 0, w: 0}
        outSlope: {x: 0, y: 0, z: 0, w: 0}
        tangentMode: 0
      - time: 0.9999997
        value: {x: -0, y: -0.15099597, z: -0, w: 0.9885344}
        inSlope: {x: 0, y: 0, z: 0, w: 0}
        outSlope: {x: 0, y: 0, z: 0, w: 0}
        tangentMode: 0
      - time: 1.0166664
        value: {x: -0, y: -0.15099597, z: -0, w: 0.9885344}
        inSlope: {x: 0, y: 0, z: 0, w: 0}
        outSlope: {x: 0, y: 0, z: 0, w: 0}
        tangentMode: 0
      - time: 1.0333331
        value: {x: -0, y: -0.15099597, z: -0, w: 0.9885344}
        inSlope: {x: 0, y: 0, z: 0, w: 0}
        outSlope: {x: 0, y: 0, z: 0, w: 0}
        tangentMode: 0
      - time: 1.0499997
        value: {x: -0, y: -0.15099597, z: -0, w: 0.9885344}
        inSlope: {x: 0, y: 0, z: 0, w: 0}
        outSlope: {x: 0, y: 0, z: 0, w: 0}
        tangentMode: 0
      - time: 1.0666664
        value: {x: -0, y: -0.15099597, z: -0, w: 0.9885344}
        inSlope: {x: 0, y: 0, z: 0, w: 0}
        outSlope: {x: 0, y: 0, z: 0, w: 0}
        tangentMode: 0
      - time: 1.083333
        value: {x: -0, y: -0.15099597, z: -0, w: 0.9885344}
        inSlope: {x: 0, y: 0, z: 0, w: 0}
        outSlope: {x: 0, y: 0, z: 0, w: 0}
        tangentMode: 0
      - time: 1.0999997
        value: {x: -0, y: -0.15099597, z: -0, w: 0.9885344}
        inSlope: {x: 0, y: 0, z: 0, w: 0}
        outSlope: {x: 0, y: 0, z: 0, w: 0}
        tangentMode: 0
      - time: 1.1166663
        value: {x: -0, y: -0.15099597, z: -0, w: 0.9885344}
        inSlope: {x: 0, y: 0, z: 0, w: 0}
        outSlope: {x: 0, y: 0, z: 0, w: 0}
        tangentMode: 0
      - time: 1.133333
        value: {x: -0, y: -0.15099597, z: -0, w: 0.9885344}
        inSlope: {x: 0, y: 0, z: 0, w: 0}
        outSlope: {x: 0, y: 0, z: 0, w: 0}
        tangentMode: 0
      - time: 1.1499996
        value: {x: -0, y: -0.15099597, z: -0, w: 0.9885344}
        inSlope: {x: 0, y: 0, z: 0, w: 0}
        outSlope: {x: 0, y: 0, z: 0, w: 0}
        tangentMode: 0
      - time: 1.1666663
        value: {x: -0, y: -0.15099597, z: -0, w: 0.9885344}
        inSlope: {x: 0, y: 0, z: 0, w: 0}
        outSlope: {x: 0, y: 0, z: 0, w: 0}
        tangentMode: 0
      - time: 1.1833329
        value: {x: -0, y: -0.15099597, z: -0, w: 0.9885344}
        inSlope: {x: 0, y: 0, z: 0, w: 0}
        outSlope: {x: 0, y: 0, z: 0, w: 0}
        tangentMode: 0
      - time: 1.1999996
        value: {x: -0, y: -0.15099597, z: -0, w: 0.9885344}
        inSlope: {x: 0, y: 0, z: 0, w: 0}
        outSlope: {x: 0, y: 0, z: 0, w: 0}
        tangentMode: 0
      - time: 1.2166662
        value: {x: -0, y: -0.15099597, z: -0, w: 0.9885344}
        inSlope: {x: 0, y: 0, z: 0, w: 0}
        outSlope: {x: 0, y: 0, z: 0, w: 0}
        tangentMode: 0
      - time: 1.2333329
        value: {x: -0, y: -0.15099597, z: -0, w: 0.9885344}
        inSlope: {x: 0, y: 0, z: 0, w: 0}
        outSlope: {x: 0, y: 0, z: 0, w: 0}
        tangentMode: 0
      - time: 1.2499995
        value: {x: -0, y: -0.15099597, z: -0, w: 0.9885344}
        inSlope: {x: 0, y: 0, z: 0, w: 0}
        outSlope: {x: 0, y: 0, z: 0, w: 0}
        tangentMode: 0
      - time: 1.2666662
        value: {x: -0, y: -0.15099597, z: -0, w: 0.9885344}
        inSlope: {x: 0, y: 0, z: 0, w: 0}
        outSlope: {x: 0, y: 0, z: 0, w: 0}
        tangentMode: 0
      - time: 1.2833328
        value: {x: -0, y: -0.15099597, z: -0, w: 0.9885344}
        inSlope: {x: 0, y: 0, z: 0, w: 0}
        outSlope: {x: 0, y: 0, z: 0, w: 0}
        tangentMode: 0
      - time: 1.3
        value: {x: -0, y: -0.15099597, z: -0, w: 0.9885344}
        inSlope: {x: 0, y: 0, z: 0, w: 0}
        outSlope: {x: 0, y: 0, z: 0, w: 0}
        tangentMode: 0
      m_PreInfinity: 2
      m_PostInfinity: 2
      m_RotationOrder: 4
    path: 
  m_CompressedRotationCurves: []
  m_EulerCurves: []
  m_PositionCurves: []
  m_ScaleCurves:
  - curve:
      serializedVersion: 2
      m_Curve:
      - time: 0
        value: {x: 0, y: 0, z: 0}
        inSlope: {x: 3.2499998, y: 3.2499998, z: 3.2499998}
        outSlope: {x: 3.2499998, y: 3.2499998, z: 3.2499998}
        tangentMode: 0
      - time: 0.4
        value: {x: 1.3, y: 1.3, z: 1.3}
        inSlope: {x: 0.9326923, y: 0.9326923, z: 0.9326923}
        outSlope: {x: 0.9326923, y: 0.9326923, z: 0.9326923}
        tangentMode: 0
      - time: 0.6166667
        value: {x: 1, y: 1, z: 1}
        inSlope: {x: -0.09230733, y: -0.09230733, z: -0.09230733}
        outSlope: {x: -0.09230733, y: -0.09230733, z: -0.09230733}
        tangentMode: 0
      - time: 0.7
        value: {x: 1.1, y: 1.1, z: 1.1}
        inSlope: {x: 0.0000004172325, y: 0.0000004172325, z: 0.0000004172325}
        outSlope: {x: 0.0000004172325, y: 0.0000004172325, z: 0.0000004172325}
        tangentMode: 0
      - time: 0.78333336
        value: {x: 1, y: 1, z: 1}
        inSlope: {x: -1.1999997, y: -1.1999997, z: -1.1999997}
        outSlope: {x: -1.1999997, y: -1.1999997, z: -1.1999997}
        tangentMode: 0
      m_PreInfinity: 2
      m_PostInfinity: 2
      m_RotationOrder: 4
    path: 
  m_FloatCurves: []
  m_PPtrCurves: []
  m_SampleRate: 60
  m_WrapMode: 0
  m_Bounds:
    m_Center: {x: 0, y: 0, z: 0}
    m_Extent: {x: 0, y: 0, z: 0}
  m_ClipBindingConstant:
    genericBindings: []
    pptrCurveMapping: []
  m_AnimationClipSettings:
    serializedVersion: 2
    m_AdditiveReferencePoseClip: {fileID: 0}
    m_AdditiveReferencePoseTime: 0
    m_StartTime: 0
    m_StopTime: 1.3
    m_OrientationOffsetY: 0
    m_Level: 0
    m_CycleOffset: 0
    m_HasAdditiveReferencePose: 0
    m_LoopTime: 1
    m_LoopBlend: 0
    m_LoopBlendOrientation: 0
    m_LoopBlendPositionY: 0
    m_LoopBlendPositionXZ: 0
    m_KeepOriginalOrientation: 0
    m_KeepOriginalPositionY: 1
    m_KeepOriginalPositionXZ: 0
    m_HeightFromFeet: 0
    m_Mirror: 0
  m_EditorCurves:
  - curve:
      serializedVersion: 2
      m_Curve:
      - time: 0
        value: 0
        inSlope: 3.2499998
        outSlope: 3.2499998
        tangentMode: 10
      - time: 0.4
        value: 1.3
        inSlope: 0.9326923
        outSlope: 0.9326923
        tangentMode: 10
      - time: 0.6166667
        value: 1
        inSlope: -0.09230733
        outSlope: -0.09230733
        tangentMode: 10
      - time: 0.7
        value: 1.1
        inSlope: 0.0000004172325
        outSlope: 0.0000004172325
        tangentMode: 10
      - time: 0.78333336
        value: 1
        inSlope: -1.1999997
        outSlope: -1.1999997
        tangentMode: 10
      m_PreInfinity: 2
      m_PostInfinity: 2
      m_RotationOrder: 4
    attribute: m_LocalScale.x
    path: 
    classID: 4
    script: {fileID: 0}
  - curve:
      serializedVersion: 2
      m_Curve:
      - time: 0
        value: 0
        inSlope: 3.2499998
        outSlope: 3.2499998
        tangentMode: 10
      - time: 0.4
        value: 1.3
        inSlope: 0.9326923
        outSlope: 0.9326923
        tangentMode: 10
      - time: 0.6166667
        value: 1
        inSlope: -0.09230733
        outSlope: -0.09230733
        tangentMode: 10
      - time: 0.7
        value: 1.1
        inSlope: 0.0000004172325
        outSlope: 0.0000004172325
        tangentMode: 10
      - time: 0.78333336
        value: 1
        inSlope: -1.1999997
        outSlope: -1.1999997
        tangentMode: 10
      m_PreInfinity: 2
      m_PostInfinity: 2
      m_RotationOrder: 4
    attribute: m_LocalScale.y
    path: 
    classID: 4
    script: {fileID: 0}
  - curve:
      serializedVersion: 2
      m_Curve:
      - time: 0
        value: 0
        inSlope: 3.2499998
        outSlope: 3.2499998
        tangentMode: 10
      - time: 0.4
        value: 1.3
        inSlope: 0.9326923
        outSlope: 0.9326923
        tangentMode: 10
      - time: 0.6166667
        value: 1
        inSlope: -0.09230733
        outSlope: -0.09230733
        tangentMode: 10
      - time: 0.7
        value: 1.1
        inSlope: 0.0000004172325
        outSlope: 0.0000004172325
        tangentMode: 10
      - time: 0.78333336
        value: 1
        inSlope: -1.1999997
        outSlope: -1.1999997
        tangentMode: 10
      m_PreInfinity: 2
      m_PostInfinity: 2
      m_RotationOrder: 4
    attribute: m_LocalScale.z
    path: 
    classID: 4
    script: {fileID: 0}
  - curve:
      serializedVersion: 2
      m_Curve:
      - time: 0
        value: -0
        inSlope: 0
        outSlope: 0
        tangentMode: 0
      - time: 0.016666668
        value: -0
        inSlope: 0
        outSlope: 0
        tangentMode: 0
      - time: 0.033333335
        value: -0
        inSlope: 0
        outSlope: 0
        tangentMode: 0
      - time: 0.050000004
        value: -0
        inSlope: 0
        outSlope: 0
        tangentMode: 0
      - time: 0.06666667
        value: -0
        inSlope: 0
        outSlope: 0
        tangentMode: 0
      - time: 0.083333336
        value: -0
        inSlope: 0
        outSlope: 0
        tangentMode: 0
      - time: 0.1
        value: -0
        inSlope: 0
        outSlope: 0
        tangentMode: 0
      - time: 0.11666667
        value: -0
        inSlope: 0
        outSlope: 0
        tangentMode: 0
      - time: 0.13333334
        value: -0
        inSlope: 0
        outSlope: 0
        tangentMode: 0
      - time: 0.15
        value: -0
        inSlope: 0
        outSlope: 0
        tangentMode: 0
      - time: 0.16666667
        value: -0
        inSlope: 0
        outSlope: 0
        tangentMode: 0
      - time: 0.18333334
        value: -0
        inSlope: 0
        outSlope: 0
        tangentMode: 0
      - time: 0.2
        value: -0
        inSlope: 0
        outSlope: 0
        tangentMode: 0
      - time: 0.21666667
        value: -0
        inSlope: 0
        outSlope: 0
        tangentMode: 0
      - time: 0.23333333
        value: -0
        inSlope: 0
        outSlope: 0
        tangentMode: 0
      - time: 0.25
        value: -0
        inSlope: 0
        outSlope: 0
        tangentMode: 0
      - time: 0.26666668
        value: -0
        inSlope: 0
        outSlope: 0
        tangentMode: 0
      - time: 0.28333336
        value: -0
        inSlope: 0
        outSlope: 0
        tangentMode: 0
      - time: 0.30000004
        value: -0
        inSlope: 0
        outSlope: 0
        tangentMode: 0
      - time: 0.31666672
        value: -0
        inSlope: 0
        outSlope: 0
        tangentMode: 0
      - time: 0.3333334
        value: -0
        inSlope: 0
        outSlope: 0
        tangentMode: 0
      - time: 0.35000008
        value: -0
        inSlope: 0
        outSlope: 0
        tangentMode: 0
      - time: 0.36666676
        value: -0
        inSlope: 0
        outSlope: 0
        tangentMode: 0
      - time: 0.38333344
        value: -0
        inSlope: 0
        outSlope: 0
        tangentMode: 0
      - time: 0.40000013
        value: -0
        inSlope: 0
        outSlope: 0
        tangentMode: 0
      - time: 0.4166668
        value: -0
        inSlope: 0
        outSlope: 0
        tangentMode: 0
      - time: 0.4333335
        value: -0
        inSlope: 0
        outSlope: 0
        tangentMode: 0
      - time: 0.45000017
        value: -0
        inSlope: 0
        outSlope: 0
        tangentMode: 0
      - time: 0.46666685
        value: -0
        inSlope: 0
        outSlope: 0
        tangentMode: 0
      - time: 0.48333353
        value: -0
        inSlope: 0
        outSlope: 0
        tangentMode: 0
      - time: 0.5000002
        value: -0
        inSlope: 0
        outSlope: 0
        tangentMode: 0
      - time: 0.5166668
        value: -0
        inSlope: 0
        outSlope: 0
        tangentMode: 0
      - time: 0.5333335
        value: -0
        inSlope: 0
        outSlope: 0
        tangentMode: 0
      - time: 0.55000013
        value: -0
        inSlope: 0
        outSlope: 0
        tangentMode: 0
      - time: 0.5666668
        value: -0
        inSlope: 0
        outSlope: 0
        tangentMode: 0
      - time: 0.58333343
        value: -0
        inSlope: 0
        outSlope: 0
        tangentMode: 0
      - time: 0.6000001
        value: -0
        inSlope: 0
        outSlope: 0
        tangentMode: 0
      - time: 0.61666673
        value: -0
        inSlope: 0
        outSlope: 0
        tangentMode: 0
      - time: 0.6333334
        value: -0
        inSlope: 0
        outSlope: 0
        tangentMode: 0
      - time: 0.65000004
        value: -0
        inSlope: 0
        outSlope: 0
        tangentMode: 0
      - time: 0.6666667
        value: -0
        inSlope: 0
        outSlope: 0
        tangentMode: 0
      - time: 0.68333334
        value: -0
        inSlope: 0
        outSlope: 0
        tangentMode: 0
      - time: 0.7
        value: -0
        inSlope: 0
        outSlope: 0
        tangentMode: 0
      - time: 0.71666664
        value: -0
        inSlope: 0
        outSlope: 0
        tangentMode: 0
      - time: 0.7333333
        value: -0
        inSlope: 0
        outSlope: 0
        tangentMode: 0
      - time: 0.74999994
        value: -0
        inSlope: 0
        outSlope: 0
        tangentMode: 0
      - time: 0.7666666
        value: -0
        inSlope: 0
        outSlope: 0
        tangentMode: 0
      - time: 0.78333324
        value: -0
        inSlope: 0
        outSlope: 0
        tangentMode: 0
      - time: 0.7999999
        value: -0
        inSlope: 0
        outSlope: 0
        tangentMode: 0
      - time: 0.81666654
        value: -0
        inSlope: 0
        outSlope: 0
        tangentMode: 0
      - time: 0.8333332
        value: -0
        inSlope: 0
        outSlope: 0
        tangentMode: 0
      - time: 0.84999985
        value: -0
        inSlope: 0
        outSlope: 0
        tangentMode: 0
      - time: 0.8666665
        value: -0
        inSlope: 0
        outSlope: 0
        tangentMode: 0
      - time: 0.88333315
        value: -0
        inSlope: 0
        outSlope: 0
        tangentMode: 0
      - time: 0.8999998
        value: -0
        inSlope: 0
        outSlope: 0
        tangentMode: 0
      - time: 0.91666645
        value: -0
        inSlope: 0
        outSlope: 0
        tangentMode: 0
      - time: 0.9333331
        value: -0
        inSlope: 0
        outSlope: 0
        tangentMode: 0
      - time: 0.94999975
        value: -0
        inSlope: 0
        outSlope: 0
        tangentMode: 0
      - time: 0.9666664
        value: -0
        inSlope: 0
        outSlope: 0
        tangentMode: 0
      - time: 0.98333305
        value: -0
        inSlope: 0
        outSlope: 0
        tangentMode: 0
      - time: 0.9999997
        value: -0
        inSlope: 0
        outSlope: 0
        tangentMode: 0
      - time: 1.0166664
        value: -0
        inSlope: 0
        outSlope: 0
        tangentMode: 0
      - time: 1.0333331
        value: -0
        inSlope: 0
        outSlope: 0
        tangentMode: 0
      - time: 1.0499997
        value: -0
        inSlope: 0
        outSlope: 0
        tangentMode: 0
      - time: 1.0666664
        value: -0
        inSlope: 0
        outSlope: 0
        tangentMode: 0
      - time: 1.083333
        value: -0
        inSlope: 0
        outSlope: 0
        tangentMode: 0
      - time: 1.0999997
        value: -0
        inSlope: 0
        outSlope: 0
        tangentMode: 0
      - time: 1.1166663
        value: -0
        inSlope: 0
        outSlope: 0
        tangentMode: 0
      - time: 1.133333
        value: -0
        inSlope: 0
        outSlope: 0
        tangentMode: 0
      - time: 1.1499996
        value: -0
        inSlope: 0
        outSlope: 0
        tangentMode: 0
      - time: 1.1666663
        value: -0
        inSlope: 0
        outSlope: 0
        tangentMode: 0
      - time: 1.1833329
        value: -0
        inSlope: 0
        outSlope: 0
        tangentMode: 0
      - time: 1.1999996
        value: -0
        inSlope: 0
        outSlope: 0
        tangentMode: 0
      - time: 1.2166662
        value: -0
        inSlope: 0
        outSlope: 0
        tangentMode: 0
      - time: 1.2333329
        value: -0
        inSlope: 0
        outSlope: 0
        tangentMode: 0
      - time: 1.2499995
        value: -0
        inSlope: 0
        outSlope: 0
        tangentMode: 0
      - time: 1.2666662
        value: -0
        inSlope: 0
        outSlope: 0
        tangentMode: 0
      - time: 1.2833328
        value: -0
        inSlope: 0
        outSlope: 0
        tangentMode: 0
      - time: 1.3
        value: -0
        inSlope: 0
        outSlope: 0
        tangentMode: 0
      m_PreInfinity: 2
      m_PostInfinity: 2
      m_RotationOrder: 4
    attribute: m_LocalRotation.x
    path: 
    classID: 4
    script: {fileID: 0}
  - curve:
      serializedVersion: 2
      m_Curve:
      - time: 0
        value: -0
        inSlope: -11.087635
        outSlope: -11.087635
        tangentMode: 0
      - time: 0.016666668
        value: -0.18479392
        inSlope: -10.693028
        outSlope: -10.693028
        tangentMode: 0
      - time: 0.033333335
        value: -0.3564343
        inSlope: -9.774199
        outSlope: -9.774199
        tangentMode: 0
      - time: 0.050000004
        value: -0.51060057
        inSlope: -8.640124
        outSlope: -8.640124
        tangentMode: 0
      - time: 0.06666667
        value: -0.64443845
        inSlope: -7.3739243
        outSlope: -7.3739243
        tangentMode: 0
      - time: 0.083333336
        value: -0.756398
        inSlope: -6.047947
        outSlope: -6.047947
        tangentMode: 0
      - time: 0.1
        value: -0.8460367
        inSlope: -4.722333
        outSlope: -4.722333
        tangentMode: 0
      - time: 0.11666667
        value: -0.9138091
        inSlope: -3.4446998
        outSlope: -3.4446998
        tangentMode: 0
      - time: 0.13333334
        value: -0.96086
        inSlope: -2.250675
        outSlope: -2.250675
        tangentMode: 0
      - time: 0.15
        value: -0.98883164
        inSlope: -1.1649961
        outSlope: -1.1649961
        tangentMode: 0
      - time: 0.16666667
        value: -0.9996932
        inSlope: -0.20292524
        outSlope: -0.20292524
        tangentMode: 0
      - time: 0.18333334
        value: -0.9955958
        inSlope: 0.6281859
        outSlope: 0.6281859
        tangentMode: 0
      - time: 0.2
        value: -0.9787537
        inSlope: 1.3273199
        outSlope: 1.3273199
        tangentMode: 0
      - time: 0.21666667
        value: -0.9513518
        inSlope: 1.8983121
        outSlope: 1.8983121
        tangentMode: 0
      - time: 0.23333333
        value: -0.9154766
        inSlope: 2.3485138
        outSlope: 2.3485138
        tangentMode: 0
      - time: 0.25
        value: -0.87306803
        inSlope: 2.687644
        outSlope: 2.687644
        tangentMode: 0
      - time: 0.26666668
        value: -0.82588845
        inSlope: 2.9268274
        outSlope: 2.9268274
        tangentMode: 0
      - time: 0.28333336
        value: -0.77550703
        inSlope: 3.0778232
        outSlope: 3.0778232
        tangentMode: 0
      - time: 0.30000004
        value: -0.72329426
        inSlope: 3.1524425
        outSlope: 3.1524425
        tangentMode: 0
      - time: 0.31666672
        value: -0.67042553
        inSlope: 3.1620803
        outSlope: 3.1620803
        tangentMode: 0
      - time: 0.3333334
        value: -0.6178915
        inSlope: 3.1174269
        outSlope: 3.1174269
        tangentMode: 0
      - time: 0.35000008
        value: -0.5665112
        inSlope: 3.0283098
        outSlope: 3.0283098
        tangentMode: 0
      - time: 0.36666676
        value: -0.51694775
        inSlope: 2.9035335
        outSlope: 2.9035335
        tangentMode: 0
      - time: 0.38333344
        value: -0.46972668
        inSlope: 2.750797
        outSlope: 2.750797
        tangentMode: 0
      - time: 0.40000013
        value: -0.42525443
        inSlope: 2.5768542
        outSlope: 2.5768542
        tangentMode: 0
      - time: 0.4166668
        value: -0.38383147
        inSlope: 2.3874526
        outSlope: 2.3874526
        tangentMode: 0
      - time: 0.4333335
        value: -0.3456726
        inSlope: 2.1873565
        outSlope: 2.1873565
        tangentMode: 0
      - time: 0.45000017
        value: -0.31091952
        inSlope: 1.9805808
        outSlope: 1.9805808
        tangentMode: 0
      - time: 0.46666685
        value: -0.2796532
        inSlope: 1.770396
        outSlope: 1.770396
        tangentMode: 0
      - time: 0.48333353
        value: -0.25190628
        inSlope: 1.5593956
        outSlope: 1.5593956
        tangentMode: 0
      - time: 0.5000002
        value: -0.22767334
        inSlope: 1.3496697
        outSlope: 1.3496697
        tangentMode: 0
      - time: 0.5166668
        value: -0.20691733
        inSlope: 1.1428595
        outSlope: 1.1428595
        tangentMode: 0
      - time: 0.5333335
        value: -0.18957806
        inSlope: 0.94017416
        outSlope: 0.94017416
        tangentMode: 0
      - time: 0.55000013
        value: -0.17557822
        inSlope: 0.74258995
        outSlope: 0.74258995
        tangentMode: 0
      - time: 0.5666668
        value: -0.16482508
        inSlope: 0.550819
        outSlope: 0.550819
        tangentMode: 0
      - time: 0.58333343
        value: -0.1572176
        inSlope: 0.3653722
        outSlope: 0.3653722
        tangentMode: 0
      - time: 0.6000001
        value: -0.15264602
        inSlope: 0.1866493
        outSlope: 0.1866493
        tangentMode: 0
      - time: 0.61666673
        value: -0.15099597
        inSlope: 0.049501557
        outSlope: 0.049501557
        tangentMode: 0
      - time: 0.6333334
        value: -0.15099597
        inSlope: 0
        outSlope: 0
        tangentMode: 0
      - time: 0.65000004
        value: -0.15099597
        inSlope: 0
        outSlope: 0
        tangentMode: 0
      - time: 0.6666667
        value: -0.15099597
        inSlope: 0
        outSlope: 0
        tangentMode: 0
      - time: 0.68333334
        value: -0.15099597
        inSlope: 0
        outSlope: 0
        tangentMode: 0
      - time: 0.7
        value: -0.15099597
        inSlope: 0
        outSlope: 0
        tangentMode: 0
      - time: 0.71666664
        value: -0.15099597
        inSlope: 0
        outSlope: 0
        tangentMode: 0
      - time: 0.7333333
        value: -0.15099597
        inSlope: 0
        outSlope: 0
        tangentMode: 0
      - time: 0.74999994
        value: -0.15099597
        inSlope: 0
        outSlope: 0
        tangentMode: 0
      - time: 0.7666666
        value: -0.15099597
        inSlope: 0
        outSlope: 0
        tangentMode: 0
      - time: 0.78333324
        value: -0.15099597
        inSlope: 0
        outSlope: 0
        tangentMode: 0
      - time: 0.7999999
        value: -0.15099597
        inSlope: 0
        outSlope: 0
        tangentMode: 0
      - time: 0.81666654
        value: -0.15099597
        inSlope: 0
        outSlope: 0
        tangentMode: 0
      - time: 0.8333332
        value: -0.15099597
        inSlope: 0
        outSlope: 0
        tangentMode: 0
      - time: 0.84999985
        value: -0.15099597
        inSlope: 0
        outSlope: 0
        tangentMode: 0
      - time: 0.8666665
        value: -0.15099597
        inSlope: 0
        outSlope: 0
        tangentMode: 0
      - time: 0.88333315
        value: -0.15099597
        inSlope: 0
        outSlope: 0
        tangentMode: 0
      - time: 0.8999998
        value: -0.15099597
        inSlope: 0
        outSlope: 0
        tangentMode: 0
      - time: 0.91666645
        value: -0.15099597
        inSlope: 0
        outSlope: 0
        tangentMode: 0
      - time: 0.9333331
        value: -0.15099597
        inSlope: 0
        outSlope: 0
        tangentMode: 0
      - time: 0.94999975
        value: -0.15099597
        inSlope: 0
        outSlope: 0
        tangentMode: 0
      - time: 0.9666664
        value: -0.15099597
        inSlope: 0
        outSlope: 0
        tangentMode: 0
      - time: 0.98333305
        value: -0.15099597
        inSlope: 0
        outSlope: 0
        tangentMode: 0
      - time: 0.9999997
        value: -0.15099597
        inSlope: 0
        outSlope: 0
        tangentMode: 0
      - time: 1.0166664
        value: -0.15099597
        inSlope: 0
        outSlope: 0
        tangentMode: 0
      - time: 1.0333331
        value: -0.15099597
        inSlope: 0
        outSlope: 0
        tangentMode: 0
      - time: 1.0499997
        value: -0.15099597
        inSlope: 0
        outSlope: 0
        tangentMode: 0
      - time: 1.0666664
        value: -0.15099597
        inSlope: 0
        outSlope: 0
        tangentMode: 0
      - time: 1.083333
        value: -0.15099597
        inSlope: 0
        outSlope: 0
        tangentMode: 0
      - time: 1.0999997
        value: -0.15099597
        inSlope: 0
        outSlope: 0
        tangentMode: 0
      - time: 1.1166663
        value: -0.15099597
        inSlope: 0
        outSlope: 0
        tangentMode: 0
      - time: 1.133333
        value: -0.15099597
        inSlope: 0
        outSlope: 0
        tangentMode: 0
      - time: 1.1499996
        value: -0.15099597
        inSlope: 0
        outSlope: 0
        tangentMode: 0
      - time: 1.1666663
        value: -0.15099597
        inSlope: 0
        outSlope: 0
        tangentMode: 0
      - time: 1.1833329
        value: -0.15099597
        inSlope: 0
        outSlope: 0
        tangentMode: 0
      - time: 1.1999996
        value: -0.15099597
        inSlope: 0
        outSlope: 0
        tangentMode: 0
      - time: 1.2166662
        value: -0.15099597
        inSlope: 0
        outSlope: 0
        tangentMode: 0
      - time: 1.2333329
        value: -0.15099597
        inSlope: 0
        outSlope: 0
        tangentMode: 0
      - time: 1.2499995
        value: -0.15099597
        inSlope: 0
        outSlope: 0
        tangentMode: 0
      - time: 1.2666662
        value: -0.15099597
        inSlope: 0
        outSlope: 0
        tangentMode: 0
      - time: 1.2833328
        value: -0.15099597
        inSlope: 0
        outSlope: 0
        tangentMode: 0
      - time: 1.3
        value: -0.15099597
        inSlope: 0
        outSlope: 0
        tangentMode: 0
      m_PreInfinity: 2
      m_PostInfinity: 2
      m_RotationOrder: 4
    attribute: m_LocalRotation.y
    path: 
    classID: 4
    script: {fileID: 0}
  - curve:
      serializedVersion: 2
      m_Curve:
      - time: 0
        value: -0
        inSlope: 0
        outSlope: 0
        tangentMode: 0
      - time: 0.016666668
        value: -0
        inSlope: 0
        outSlope: 0
        tangentMode: 0
      - time: 0.033333335
        value: -0
        inSlope: 0
        outSlope: 0
        tangentMode: 0
      - time: 0.050000004
        value: -0
        inSlope: 0
        outSlope: 0
        tangentMode: 0
      - time: 0.06666667
        value: -0
        inSlope: 0
        outSlope: 0
        tangentMode: 0
      - time: 0.083333336
        value: -0
        inSlope: 0
        outSlope: 0
        tangentMode: 0
      - time: 0.1
        value: -0
        inSlope: 0
        outSlope: 0
        tangentMode: 0
      - time: 0.11666667
        value: -0
        inSlope: 0
        outSlope: 0
        tangentMode: 0
      - time: 0.13333334
        value: -0
        inSlope: 0
        outSlope: 0
        tangentMode: 0
      - time: 0.15
        value: -0
        inSlope: 0
        outSlope: 0
        tangentMode: 0
      - time: 0.16666667
        value: -0
        inSlope: 0
        outSlope: 0
        tangentMode: 0
      - time: 0.18333334
        value: -0
        inSlope: 0
        outSlope: 0
        tangentMode: 0
      - time: 0.2
        value: -0
        inSlope: 0
        outSlope: 0
        tangentMode: 0
      - time: 0.21666667
        value: -0
        inSlope: 0
        outSlope: 0
        tangentMode: 0
      - time: 0.23333333
        value: -0
        inSlope: 0
        outSlope: 0
        tangentMode: 0
      - time: 0.25
        value: -0
        inSlope: 0
        outSlope: 0
        tangentMode: 0
      - time: 0.26666668
        value: -0
        inSlope: 0
        outSlope: 0
        tangentMode: 0
      - time: 0.28333336
        value: -0
        inSlope: 0
        outSlope: 0
        tangentMode: 0
      - time: 0.30000004
        value: -0
        inSlope: 0
        outSlope: 0
        tangentMode: 0
      - time: 0.31666672
        value: -0
        inSlope: 0
        outSlope: 0
        tangentMode: 0
      - time: 0.3333334
        value: -0
        inSlope: 0
        outSlope: 0
        tangentMode: 0
      - time: 0.35000008
        value: -0
        inSlope: 0
        outSlope: 0
        tangentMode: 0
      - time: 0.36666676
        value: -0
        inSlope: 0
        outSlope: 0
        tangentMode: 0
      - time: 0.38333344
        value: -0
        inSlope: 0
        outSlope: 0
        tangentMode: 0
      - time: 0.40000013
        value: -0
        inSlope: 0
        outSlope: 0
        tangentMode: 0
      - time: 0.4166668
        value: -0
        inSlope: 0
        outSlope: 0
        tangentMode: 0
      - time: 0.4333335
        value: -0
        inSlope: 0
        outSlope: 0
        tangentMode: 0
      - time: 0.45000017
        value: -0
        inSlope: 0
        outSlope: 0
        tangentMode: 0
      - time: 0.46666685
        value: -0
        inSlope: 0
        outSlope: 0
        tangentMode: 0
      - time: 0.48333353
        value: -0
        inSlope: 0
        outSlope: 0
        tangentMode: 0
      - time: 0.5000002
        value: -0
        inSlope: 0
        outSlope: 0
        tangentMode: 0
      - time: 0.5166668
        value: -0
        inSlope: 0
        outSlope: 0
        tangentMode: 0
      - time: 0.5333335
        value: -0
        inSlope: 0
        outSlope: 0
        tangentMode: 0
      - time: 0.55000013
        value: -0
        inSlope: 0
        outSlope: 0
        tangentMode: 0
      - time: 0.5666668
        value: -0
        inSlope: 0
        outSlope: 0
        tangentMode: 0
      - time: 0.58333343
        value: -0
        inSlope: 0
        outSlope: 0
        tangentMode: 0
      - time: 0.6000001
        value: -0
        inSlope: 0
        outSlope: 0
        tangentMode: 0
      - time: 0.61666673
        value: -0
        inSlope: 0
        outSlope: 0
        tangentMode: 0
      - time: 0.6333334
        value: -0
        inSlope: 0
        outSlope: 0
        tangentMode: 0
      - time: 0.65000004
        value: -0
        inSlope: 0
        outSlope: 0
        tangentMode: 0
      - time: 0.6666667
        value: -0
        inSlope: 0
        outSlope: 0
        tangentMode: 0
      - time: 0.68333334
        value: -0
        inSlope: 0
        outSlope: 0
        tangentMode: 0
      - time: 0.7
        value: -0
        inSlope: 0
        outSlope: 0
        tangentMode: 0
      - time: 0.71666664
        value: -0
        inSlope: 0
        outSlope: 0
        tangentMode: 0
      - time: 0.7333333
        value: -0
        inSlope: 0
        outSlope: 0
        tangentMode: 0
      - time: 0.74999994
        value: -0
        inSlope: 0
        outSlope: 0
        tangentMode: 0
      - time: 0.7666666
        value: -0
        inSlope: 0
        outSlope: 0
        tangentMode: 0
      - time: 0.78333324
        value: -0
        inSlope: 0
        outSlope: 0
        tangentMode: 0
      - time: 0.7999999
        value: -0
        inSlope: 0
        outSlope: 0
        tangentMode: 0
      - time: 0.81666654
        value: -0
        inSlope: 0
        outSlope: 0
        tangentMode: 0
      - time: 0.8333332
        value: -0
        inSlope: 0
        outSlope: 0
        tangentMode: 0
      - time: 0.84999985
        value: -0
        inSlope: 0
        outSlope: 0
        tangentMode: 0
      - time: 0.8666665
        value: -0
        inSlope: 0
        outSlope: 0
        tangentMode: 0
      - time: 0.88333315
        value: -0
        inSlope: 0
        outSlope: 0
        tangentMode: 0
      - time: 0.8999998
        value: -0
        inSlope: 0
        outSlope: 0
        tangentMode: 0
      - time: 0.91666645
        value: -0
        inSlope: 0
        outSlope: 0
        tangentMode: 0
      - time: 0.9333331
        value: -0
        inSlope: 0
        outSlope: 0
        tangentMode: 0
      - time: 0.94999975
        value: -0
        inSlope: 0
        outSlope: 0
        tangentMode: 0
      - time: 0.9666664
        value: -0
        inSlope: 0
        outSlope: 0
        tangentMode: 0
      - time: 0.98333305
        value: -0
        inSlope: 0
        outSlope: 0
        tangentMode: 0
      - time: 0.9999997
        value: -0
        inSlope: 0
        outSlope: 0
        tangentMode: 0
      - time: 1.0166664
        value: -0
        inSlope: 0
        outSlope: 0
        tangentMode: 0
      - time: 1.0333331
        value: -0
        inSlope: 0
        outSlope: 0
        tangentMode: 0
      - time: 1.0499997
        value: -0
        inSlope: 0
        outSlope: 0
        tangentMode: 0
      - time: 1.0666664
        value: -0
        inSlope: 0
        outSlope: 0
        tangentMode: 0
      - time: 1.083333
        value: -0
        inSlope: 0
        outSlope: 0
        tangentMode: 0
      - time: 1.0999997
        value: -0
        inSlope: 0
        outSlope: 0
        tangentMode: 0
      - time: 1.1166663
        value: -0
        inSlope: 0
        outSlope: 0
        tangentMode: 0
      - time: 1.133333
        value: -0
        inSlope: 0
        outSlope: 0
        tangentMode: 0
      - time: 1.1499996
        value: -0
        inSlope: 0
        outSlope: 0
        tangentMode: 0
      - time: 1.1666663
        value: -0
        inSlope: 0
        outSlope: 0
        tangentMode: 0
      - time: 1.1833329
        value: -0
        inSlope: 0
        outSlope: 0
        tangentMode: 0
      - time: 1.1999996
        value: -0
        inSlope: 0
        outSlope: 0
        tangentMode: 0
      - time: 1.2166662
        value: -0
        inSlope: 0
        outSlope: 0
        tangentMode: 0
      - time: 1.2333329
        value: -0
        inSlope: 0
        outSlope: 0
        tangentMode: 0
      - time: 1.2499995
        value: -0
        inSlope: 0
        outSlope: 0
        tangentMode: 0
      - time: 1.2666662
        value: -0
        inSlope: 0
        outSlope: 0
        tangentMode: 0
      - time: 1.2833328
        value: -0
        inSlope: 0
        outSlope: 0
        tangentMode: 0
      - time: 1.3
        value: -0
        inSlope: 0
        outSlope: 0
        tangentMode: 0
      m_PreInfinity: 2
      m_PostInfinity: 2
      m_RotationOrder: 4
    attribute: m_LocalRotation.z
    path: 
    classID: 4
    script: {fileID: 0}
  - curve:
      serializedVersion: 2
      m_Curve:
      - time: 0
        value: -1
        inSlope: 1.0333622
        outSlope: 1.0333622
        tangentMode: 0
      - time: 0.016666668
        value: -0.9827773
        inSlope: 1.9703882
        outSlope: 1.9703882
        tangentMode: 0
      - time: 0.033333335
        value: -0.9343204
        inSlope: 3.688777
        outSlope: 3.688777
        tangentMode: 0
      - time: 0.050000004
        value: -0.85981804
        inSlope: 5.089926
        outSlope: 5.089926
        tangentMode: 0
      - time: 0.06666667
        value: -0.7646562
        inSlope: 6.171191
        outSlope: 6.171191
        tangentMode: 0
      - time: 0.083333336
        value: -0.6541117
        inSlope: 6.945944
        outSlope: 6.945944
        tangentMode: 0
      - time: 0.1
        value: -0.53312474
        inSlope: 7.4390345
        outSlope: 7.4390345
        tangentMode: 0
      - time: 0.11666667
        value: -0.40614387
        inSlope: 7.6827116
        outSlope: 7.6827116
        tangentMode: 0
      - time: 0.13333334
        value: -0.2770343
        inSlope: 7.7132063
        outSlope: 7.7132063
        tangentMode: 0
      - time: 0.15
        value: -0.14903694
        inSlope: 7.567985
        outSlope: 7.567985
        tangentMode: 0
      - time: 0.16666667
        value: -0.02476816
        inSlope: 7.283601
        outSlope: 7.283601
        tangentMode: 0
      - time: 0.18333334
        value: 0.09374974
        inSlope: 6.894236
        outSlope: 6.894236
        tangentMode: 0
      - time: 0.2
        value: 0.2050397
        inSlope: 6.43071
        outSlope: 6.43071
        tangentMode: 0
      - time: 0.21666667
        value: 0.30810672
        inSlope: 5.919945
        outSlope: 5.919945
        tangentMode: 0
      - time: 0.23333333
        value: 0.40237117
        inSlope: 5.3847504
        outSlope: 5.3847504
        tangentMode: 0
      - time: 0.25
        value: 0.4875984
        inSlope: 4.843869
        outSlope: 4.843869
        tangentMode: 0
      - time: 0.26666668
        value: 0.56383353
        inSlope: 4.3122115
        outSlope: 4.3122115
        tangentMode: 0
      - time: 0.28333336
        value: 0.6313389
        inSlope: 3.8011894
        outSlope: 3.8011894
        tangentMode: 0
      - time: 0.30000004
        value: 0.69053996
        inSlope: 3.3191361
        outSlope: 3.3191361
        tangentMode: 0
      - time: 0.31666672
        value: 0.74197686
        inSlope: 2.8716993
        outSlope: 2.8716993
        tangentMode: 0
      - time: 0.3333334
        value: 0.78626335
        inSlope: 2.4623122
        outSlope: 2.4623122
        tangentMode: 0
      - time: 0.35000008
        value: 0.824054
        inSlope: 2.0926058
        outSlope: 2.0926058
        tangentMode: 0
      - time: 0.36666676
        value: 0.85601693
        inSlope: 1.7627356
        outSlope: 1.7627356
        tangentMode: 0
      - time: 0.38333344
        value: 0.8828119
        inSlope: 1.4717054
        outSlope: 1.4717054
        tangentMode: 0
      - time: 0.40000013
        value: 0.9050738
        inSlope: 1.2177362
        outSlope: 1.2177362
        tangentMode: 0
      - time: 0.4166668
        value: 0.92340314
        inSlope: 0.99844074
        outSlope: 0.99844074
        tangentMode: 0
      - time: 0.4333335
        value: 0.9383552
        inSlope: 0.810992
        outSlope: 0.810992
        tangentMode: 0
      - time: 0.45000017
        value: 0.95043623
        inSlope: 0.6523753
        outSlope: 0.6523753
        tangentMode: 0
      - time: 0.46666685
        value: 0.96010107
        inSlope: 0.5194612
        outSlope: 0.5194612
        tangentMode: 0
      - time: 0.48333353
        value: 0.9677516
        inSlope: 0.40909407
        outSlope: 0.40909407
        tangentMode: 0
      - time: 0.5000002
        value: 0.97373754
        inSlope: 0.31820506
        outSlope: 0.31820506
        tangentMode: 0
      - time: 0.5166668
        value: 0.97835845
        inSlope: 0.24384344
        outSlope: 0.24384344
        tangentMode: 0
      - time: 0.5333335
        value: 0.98186564
        inSlope: 0.18321115
        outSlope: 0.18321115
        tangentMode: 0
      - time: 0.55000013
        value: 0.9844655
        inSlope: 0.13371539
        outSlope: 0.13371539
        tangentMode: 0
      - time: 0.5666668
        value: 0.9863228
        inSlope: 0.092954725
        outSlope: 0.092954725
        tangentMode: 0
      - time: 0.58333343
        value: 0.98756397
        inSlope: 0.058744013
        outSlope: 0.058744013
        tangentMode: 0
      - time: 0.6000001
        value: 0.98828095
        inSlope: 0.029112725
        outSlope: 0.029112725
        tangentMode: 0
      - time: 0.61666673
        value: 0.9885344
        inSlope: 0.007603176
        outSlope: 0.007603176
        tangentMode: 0
      - time: 0.6333334
        value: 0.9885344
        inSlope: 0
        outSlope: 0
        tangentMode: 0
      - time: 0.65000004
        value: 0.9885344
        inSlope: 0
        outSlope: 0
        tangentMode: 0
      - time: 0.6666667
        value: 0.9885344
        inSlope: 0
        outSlope: 0
        tangentMode: 0
      - time: 0.68333334
        value: 0.9885344
        inSlope: 0
        outSlope: 0
        tangentMode: 0
      - time: 0.7
        value: 0.9885344
        inSlope: 0
        outSlope: 0
        tangentMode: 0
      - time: 0.71666664
        value: 0.9885344
        inSlope: 0
        outSlope: 0
        tangentMode: 0
      - time: 0.7333333
        value: 0.9885344
        inSlope: 0
        outSlope: 0
        tangentMode: 0
      - time: 0.74999994
        value: 0.9885344
        inSlope: 0
        outSlope: 0
        tangentMode: 0
      - time: 0.7666666
        value: 0.9885344
        inSlope: 0
        outSlope: 0
        tangentMode: 0
      - time: 0.78333324
        value: 0.9885344
        inSlope: 0
        outSlope: 0
        tangentMode: 0
      - time: 0.7999999
        value: 0.9885344
        inSlope: 0
        outSlope: 0
        tangentMode: 0
      - time: 0.81666654
        value: 0.9885344
        inSlope: 0
        outSlope: 0
        tangentMode: 0
      - time: 0.8333332
        value: 0.9885344
        inSlope: 0
        outSlope: 0
        tangentMode: 0
      - time: 0.84999985
        value: 0.9885344
        inSlope: 0
        outSlope: 0
        tangentMode: 0
      - time: 0.8666665
        value: 0.9885344
        inSlope: 0
        outSlope: 0
        tangentMode: 0
      - time: 0.88333315
        value: 0.9885344
        inSlope: 0
        outSlope: 0
        tangentMode: 0
      - time: 0.8999998
        value: 0.9885344
        inSlope: 0
        outSlope: 0
        tangentMode: 0
      - time: 0.91666645
        value: 0.9885344
        inSlope: 0
        outSlope: 0
        tangentMode: 0
      - time: 0.9333331
        value: 0.9885344
        inSlope: 0
        outSlope: 0
        tangentMode: 0
      - time: 0.94999975
        value: 0.9885344
        inSlope: 0
        outSlope: 0
        tangentMode: 0
      - time: 0.9666664
        value: 0.9885344
        inSlope: 0
        outSlope: 0
        tangentMode: 0
      - time: 0.98333305
        value: 0.9885344
        inSlope: 0
        outSlope: 0
        tangentMode: 0
      - time: 0.9999997
        value: 0.9885344
        inSlope: 0
        outSlope: 0
        tangentMode: 0
      - time: 1.0166664
        value: 0.9885344
        inSlope: 0
        outSlope: 0
        tangentMode: 0
      - time: 1.0333331
        value: 0.9885344
        inSlope: 0
        outSlope: 0
        tangentMode: 0
      - time: 1.0499997
        value: 0.9885344
        inSlope: 0
        outSlope: 0
        tangentMode: 0
      - time: 1.0666664
        value: 0.9885344
        inSlope: 0
        outSlope: 0
        tangentMode: 0
      - time: 1.083333
        value: 0.9885344
        inSlope: 0
        outSlope: 0
        tangentMode: 0
      - time: 1.0999997
        value: 0.9885344
        inSlope: 0
        outSlope: 0
        tangentMode: 0
      - time: 1.1166663
        value: 0.9885344
        inSlope: 0
        outSlope: 0
        tangentMode: 0
      - time: 1.133333
        value: 0.9885344
        inSlope: 0
        outSlope: 0
        tangentMode: 0
      - time: 1.1499996
        value: 0.9885344
        inSlope: 0
        outSlope: 0
        tangentMode: 0
      - time: 1.1666663
        value: 0.9885344
        inSlope: 0
        outSlope: 0
        tangentMode: 0
      - time: 1.1833329
        value: 0.9885344
        inSlope: 0
        outSlope: 0
        tangentMode: 0
      - time: 1.1999996
        value: 0.9885344
        inSlope: 0
        outSlope: 0
        tangentMode: 0
      - time: 1.2166662
        value: 0.9885344
        inSlope: 0
        outSlope: 0
        tangentMode: 0
      - time: 1.2333329
        value: 0.9885344
        inSlope: 0
        outSlope: 0
        tangentMode: 0
      - time: 1.2499995
        value: 0.9885344
        inSlope: 0
        outSlope: 0
        tangentMode: 0
      - time: 1.2666662
        value: 0.9885344
        inSlope: 0
        outSlope: 0
        tangentMode: 0
      - time: 1.2833328
        value: 0.9885344
        inSlope: 0
        outSlope: 0
        tangentMode: 0
      - time: 1.3
        value: 0.9885344
        inSlope: 0
        outSlope: 0
        tangentMode: 0
      m_PreInfinity: 2
      m_PostInfinity: 2
      m_RotationOrder: 4
    attribute: m_LocalRotation.w
    path: 
    classID: 4
    script: {fileID: 0}
  m_EulerEditorCurves:
  - curve:
      serializedVersion: 2
      m_Curve:
      - time: 0
        value: 0
        inSlope: 0
        outSlope: 0
        tangentMode: 10
      - time: 0.6166667
        value: 0
        inSlope: 0
        outSlope: -0
        tangentMode: 17
      m_PreInfinity: 2
      m_PostInfinity: 2
      m_RotationOrder: 4
    attribute: localEulerAnglesBaked.x
    path: 
    classID: 4
    script: {fileID: 0}
  - curve:
      serializedVersion: 2
      m_Curve:
      - time: 0
        value: 0
        inSlope: 555.6173
        outSlope: 1303.1884
        tangentMode: 1
      - time: 0.6166667
        value: 342.63068
        inSlope: 1.5992494
        outSlope: -0
        tangentMode: 17
      - time: 1.3
        value: 342.63068
        inSlope: 0
        outSlope: 0
        tangentMode: 5
      m_PreInfinity: 2
      m_PostInfinity: 2
      m_RotationOrder: 4
    attribute: localEulerAnglesBaked.y
    path: 
    classID: 4
    script: {fileID: 0}
  - curve:
      serializedVersion: 2
      m_Curve:
      - time: 0
        value: 0
        inSlope: 0
        outSlope: 0
        tangentMode: 10
      - time: 0.6166667
        value: 0
        inSlope: 0
        outSlope: -0
        tangentMode: 17
      m_PreInfinity: 2
      m_PostInfinity: 2
      m_RotationOrder: 4
    attribute: localEulerAnglesBaked.z
    path: 
    classID: 4
    script: {fileID: 0}
  m_HasGenericRootTransform: 0
  m_HasMotionFloatCurves: 0
  m_GenerateMotionCurves: 0
  m_Events: []
